sim/dump.vcd
$date
	Mon Jul 07 05:55:36 2014
$end
$version
	Icarus Verilog
$end
$timescale
	1ns
$end
$scope module tb $end
$var wire 16 ! addr [15:0] $end
$var wire 16 " addr_o [15:0] $end
$var wire 8 # data_i [7:0] $end
$var wire 8 $ data_o [7:0] $end
$var wire 8 % data_o_o [7:0] $end
$var wire 1 & oe $end
$var wire 1 ' we $end
$var reg 1 ( clk $end
$var reg 1 ) reset $end
$scope module cpu $end
$var wire 8 * alu_o_CCR [7:0] $end
$var wire 16 + alu_o_result [15:0] $end
$var wire 16 , cpu_addr_o [15:0] $end
$var wire 1 - cpu_clk $end
$var wire 8 . cpu_data_i [7:0] $end
$var wire 8 / cpu_data_o [7:0] $end
$var wire 1 0 cpu_firq_n $end
$var wire 1 1 cpu_irq_n $end
$var wire 1 2 cpu_nmi_n $end
$var wire 1 & cpu_oe_o $end
$var wire 1 3 cpu_reset $end
$var wire 6 4 cpu_state_o [5:0] $end
$var wire 1 ' cpu_we_o $end
$var wire 1 5 debug_clk $end
$var wire 1 6 debug_data_o $end
$var wire 4 7 dec_lo_dest_reg_addr [3:0] $end
$var wire 4 8 dec_lo_left_path_addr [3:0] $end
$var wire 4 9 dec_lo_right_path_addr [3:0] $end
$var wire 5 : dec_o_alu_opcode [4:0] $end
$var wire 1 ; dec_o_alu_size $end
$var wire 1 < dec_o_cond_taken $end
$var wire 4 = dec_o_dest_reg_addr [3:0] $end
$var wire 1 > dec_o_ea_indirect $end
$var wire 1 ? dec_o_ea_ofs0 $end
$var wire 1 @ dec_o_ea_ofs16 $end
$var wire 1 A dec_o_ea_ofs8 $end
$var wire 1 B dec_o_ea_wpost $end
$var wire 4 C dec_o_left_path_addr [3:0] $end
$var wire 3 D dec_o_p1_mode [2:0] $end
$var wire 3 E dec_o_p1_optype [2:0] $end
$var wire 4 F dec_o_right_path_addr [3:0] $end
$var wire 2 G dec_o_right_path_mod [1:0] $end
$var wire 1 H dec_o_source_size $end
$var wire 1 I dec_o_use_s $end
$var wire 1 J dec_o_wdest $end
$var wire 1 K dec_o_write_flags $end
$var wire 1 L k_firq_req $end
$var wire 1 M k_irq_req $end
$var wire 1 N k_nmi_req $end
$var wire 1 O k_reset $end
$var wire 8 P regs_o_CCR [7:0] $end
$var wire 8 Q regs_o_dp [7:0] $end
$var wire 16 R regs_o_eamem_addr [15:0] $end
$var wire 16 S regs_o_left_path_data [15:0] $end
$var wire 16 T regs_o_pc [15:0] $end
$var wire 16 U regs_o_right_path_data [15:0] $end
$var wire 16 V regs_o_su [15:0] $end
$var reg 4 W datamux_o_alu_in_left_path_addr [3:0] $end
$var reg 16 X datamux_o_alu_in_left_path_data [15:0] $end
$var reg 16 Y datamux_o_alu_in_right_path_data [15:0] $end
$var reg 16 Z datamux_o_dest [15:0] $end
$var reg 4 [ datamux_o_dest_reg_addr [3:0] $end
$var reg 1 \ k_clear_e $end
$var reg 16 ] k_cpu_addr [15:0] $end
$var reg 8 ^ k_cpu_data_o [7:0] $end
$var reg 1 _ k_cpu_oe $end
$var reg 1 ` k_cpu_we $end
$var reg 1 a k_dec_su $end
$var reg 8 b k_eahi [7:0] $end
$var reg 8 c k_ealo [7:0] $end
$var reg 1 d k_forced_mem_size $end
$var reg 1 e k_inc_pc $end
$var reg 1 f k_inc_su $end
$var reg 8 g k_ind_ea [7:0] $end
$var reg 1 h k_indirect_loaded $end
$var reg 2 i k_mem_dest [1:0] $end
$var reg 8 j k_memhi [7:0] $end
$var reg 8 k k_memlo [7:0] $end
$var reg 1 l k_mul_cnt $end
$var reg 16 m k_new_pc [15:0] $end
$var reg 8 n k_ofshi [7:0] $end
$var reg 8 o k_ofslo [7:0] $end
$var reg 8 p k_opcode [7:0] $end
$var reg 1 q k_p2_valid $end
$var reg 1 r k_p3_valid $end
$var reg 8 s k_postbyte [7:0] $end
$var reg 4 t k_pp_active_reg [3:0] $end
$var reg 8 u k_pp_regs [7:0] $end
$var reg 3 v k_reg_firq [2:0] $end
$var reg 3 w k_reg_irq [2:0] $end
$var reg 3 x k_reg_nmi [2:0] $end
$var reg 1 y k_set_e $end
$var reg 1 z k_write_dest $end
$var reg 1 { k_write_exg $end
$var reg 1 | k_write_pc $end
$var reg 1 } k_write_post_incdec $end
$var reg 1 ~ k_write_tfr $end
$var reg 6 !" next_mem_state [5:0] $end
$var reg 6 "" next_push_state [5:0] $end
$var reg 6 #" next_state [5:0] $end
$var reg 6 $" state [5:0] $end
$scope module alu $end
$var wire 8 %" CCR [7:0] $end
$var wire 16 &" a_in [15:0] $end
$var wire 16 '" b_in [15:0] $end
$var wire 4 (" ccr16_out [3:0] $end
$var wire 8 )" ccr8_out [7:0] $end
$var wire 1 - clk_in $end
$var wire 5 *" opcode_in [4:0] $end
$var wire 16 +" q16_mul [15:0] $end
$var wire 16 ," q16_out [15:0] $end
$var wire 8 -" q8_out [7:0] $end
$var wire 1 ; sz_in $end
$var reg 8 ." CCRo [7:0] $end
$var reg 16 /" q_out [15:0] $end
$var reg 16 0" ra_in [15:0] $end
$var reg 16 1" rb_in [15:0] $end
$var reg 5 2" rop_in [4:0] $end
$scope module mulu $end
$var wire 8 3" a [7:0] $end
$var wire 8 4" b [7:0] $end
$var wire 1 - clk_in $end
$var wire 16 5" q [15:0] $end
$var reg 16 6" pipe0 [15:0] $end
$var reg 16 7" pipe1 [15:0] $end
$upscope $end
$scope module alu8 $end
$var wire 8 8" CCR [7:0] $end
$var wire 8 9" a_in [7:0] $end
$var wire 1 :" arith_c $end
$var wire 1 ;" arith_h $end
$var wire 8 <" arith_q [7:0] $end
$var wire 1 =" arith_v $end
$var wire 8 >" b_in [7:0] $end
$var wire 1 ?" c_in $end
$var wire 1 @" ccom8_r $end
$var wire 1 A" cdaa8_r $end
$var wire 1 - clk_in $end
$var wire 1 B" cneg8_r $end
$var wire 8 C" com8_r [7:0] $end
$var wire 8 D" com8_w [7:0] $end
$var wire 4 E" daa8h_r [3:0] $end
$var wire 8 F" daa_p0_r [7:0] $end
$var wire 1 G" h_in $end
$var wire 8 H" logic_q [7:0] $end
$var wire 1 I" n_in $end
$var wire 8 J" neg8_r [7:0] $end
$var wire 8 K" neg8_w [7:0] $end
$var wire 5 L" opcode_in [4:0] $end
$var wire 1 M" shift_c $end
$var wire 8 N" shift_q [7:0] $end
$var wire 1 O" shift_v $end
$var wire 1 P" v_in $end
$var wire 1 Q" vcom8_r $end
$var wire 1 R" vneg8_r $end
$var wire 1 S" z_in $end
$var reg 8 T" CCRo [7:0] $end
$var reg 1 U" c8 $end
$var reg 1 V" h8 $end
$var reg 8 W" q8 [7:0] $end
$var reg 8 X" q_out [7:0] $end
$var reg 1 Y" v8 $end
$scope module l8 $end
$var wire 8 Z" a_in [7:0] $end
$var wire 8 [" b_in [7:0] $end
$var wire 2 \" opcode_in [1:0] $end
$var reg 8 ]" q_out [7:0] $end
$upscope $end
$scope module a8 $end
$var wire 8 ^" a_in [7:0] $end
$var wire 8 _" b_in [7:0] $end
$var wire 1 `" carry $end
$var wire 1 ?" carry_in $end
$var wire 1 G" half_c_in $end
$var wire 2 a" opcode_in [1:0] $end
$var reg 1 b" carry_out $end
$var reg 1 c" half_c_out $end
$var reg 1 d" overflow_out $end
$var reg 8 e" q_out [7:0] $end
$upscope $end
$scope module s8 $end
$var wire 8 f" a_in [7:0] $end
$var wire 8 g" b_in [7:0] $end
$var wire 1 ?" carry_in $end
$var wire 1 M" carry_out $end
$var wire 3 h" opcode_in [2:0] $end
$var wire 1 P" overflow_in $end
$var reg 1 i" overflow_out $end
$var reg 8 j" q_out [7:0] $end
$upscope $end
$upscope $end
$scope module alu16 $end
$var wire 8 k" CCR [7:0] $end
$var wire 16 l" a_in [15:0] $end
$var wire 1 m" arith_c $end
$var wire 16 n" arith_q [15:0] $end
$var wire 1 o" arith_v $end
$var wire 16 p" b_in [15:0] $end
$var wire 1 q" c_in $end
$var wire 1 - clk_in $end
$var wire 1 r" n_in $end
$var wire 5 s" opcode_in [4:0] $end
$var wire 16 t" q_mul_in [15:0] $end
$var wire 1 u" v_in $end
$var wire 1 v" z_in $end
$var reg 4 w" CCRo [3:0] $end
$var reg 1 x" c16 $end
$var reg 1 y" n16 $end
$var reg 16 z" q16 [15:0] $end
$var reg 16 {" q_out [15:0] $end
$var reg 1 |" reg_n_in $end
$var reg 1 }" reg_z_in $end
$var reg 16 ~" regq16 [15:0] $end
$var reg 1 !# v16 $end
$var reg 1 "# z16 $end
$scope module a16 $end
$var wire 16 ## a_in [15:0] $end
$var wire 16 $# b_in [15:0] $end
$var wire 1 q" carry_in $end
$var wire 2 %# opcode_in [1:0] $end
$var reg 1 &# carry_out $end
$var reg 1 '# overflow_out $end
$var reg 16 (# q_out [15:0] $end
$upscope $end
$upscope $end
$upscope $end
$scope module regs $end
$var wire 8 )# CCR_in [7:0] $end
$var wire 8 *# CCR_o [7:0] $end
$var wire 1 +# clear_e $end
$var wire 1 - clk_in $end
$var wire 16 ,# data_w [15:0] $end
$var wire 1 -# dec_su $end
$var wire 16 .# ea_reg_post [15:0] $end
$var wire 16 /# eamem_addr [15:0] $end
$var wire 16 0# eamem_addr_o [15:0] $end
$var wire 8 1# eapostbyte [7:0] $end
$var wire 4 2# exg_dest_r [3:0] $end
$var wire 1 3# inc_pc $end
$var wire 1 4# inc_su $end
$var wire 16 5# left [15:0] $end
$var wire 16 6# new_pc [15:0] $end
$var wire 16 7# offset16 [15:0] $end
$var wire 4 8# path_left_addr [3:0] $end
$var wire 4 9# path_right_addr [3:0] $end
$var wire 16 :# pc_plus_1 [15:0] $end
$var wire 8 ;# reg_dp [7:0] $end
$var wire 16 <# reg_pc [15:0] $end
$var wire 16 =# reg_su [15:0] $end
$var wire 16 ># right [15:0] $end
$var wire 4 ?# right_reg [3:0] $end
$var wire 1 @# set_e $end
$var wire 1 I use_s $end
$var wire 1 A# write_exg $end
$var wire 1 B# write_flags $end
$var wire 1 C# write_pc $end
$var wire 1 D# write_post $end
$var wire 1 E# write_reg $end
$var wire 4 F# write_reg_addr [3:0] $end
$var wire 1 G# write_tfr $end
$var reg 8 H# ACCA [7:0] $end
$var reg 8 I# ACCB [7:0] $end
$var reg 8 J# DP [7:0] $end
$var reg 16 K# IX [15:0] $end
$var reg 16 L# IY [15:0] $end
$var reg 16 M# PC [15:0] $end
$var reg 16 N# SS [15:0] $end
$var reg 16 O# SU [15:0] $end
$var reg 1 P# cff $end
$var reg 1 Q# eflag $end
$var reg 1 R# fflag $end
$var reg 1 S# hflag $end
$var reg 1 T# intff $end
$var reg 1 U# nff $end
$var reg 16 V# path_left_data [15:0] $end
$var reg 16 W# path_right_data [15:0] $end
$var reg 1 X# vff $end
$var reg 1 Y# zff $end
$scope module ea $end
$var wire 8 Z# acca [7:0] $end
$var wire 8 [# accb [7:0] $end
$var wire 16 \# ea_reg_post_o [15:0] $end
$var wire 16 ]# eamem_addr_o [15:0] $end
$var wire 8 ^# eapostbyte [7:0] $end
$var wire 16 _# ix [15:0] $end
$var wire 16 `# iy [15:0] $end
$var wire 16 a# offset16 [15:0] $end
$var wire 16 b# pc [15:0] $end
$var wire 16 c# s [15:0] $end
$var wire 16 d# u [15:0] $end
$var reg 16 e# ea_reg [15:0] $end
$var reg 16 f# ea_reg_post [15:0] $end
$var reg 16 g# eamem_addr [15:0] $end
$upscope $end
$upscope $end
$scope module dec_regs $end
$var wire 1 - cpu_clk $end
$var wire 4 h# dest_reg_o [3:0] $end
$var wire 8 i# opcode [7:0] $end
$var wire 1 j# page2_valid $end
$var wire 1 k# page3_valid $end
$var wire 4 l# path_left_addr_o [3:0] $end
$var wire 4 m# path_right_addr_o [3:0] $end
$var wire 8 n# postbyte0 [7:0] $end
$var wire 1 ; result_size $end
$var wire 1 H source_size $end
$var wire 1 J write_dest $end
$var reg 4 o# dest_reg [3:0] $end
$var reg 4 p# dest_reg_lo [3:0] $end
$var reg 4 q# path_left_addr [3:0] $end
$var reg 4 r# path_left_addr_lo [3:0] $end
$var reg 4 s# path_right_addr [3:0] $end
$var reg 4 t# path_right_addr_lo [3:0] $end
$upscope $end
$scope module dec_op $end
$var wire 8 u# opcode [7:0] $end
$var wire 4 v# oplo [3:0] $end
$var wire 1 j# page2_valid $end
$var wire 1 k# page3_valid $end
$var wire 8 w# postbyte0 [7:0] $end
$var reg 3 x# mode [2:0] $end
$var reg 3 y# optype [2:0] $end
$var reg 1 z# size $end
$var reg 1 {# use_s $end
$upscope $end
$scope module dec_ea $end
$var wire 8 |# eapostbyte [7:0] $end
$var wire 1 > isind $end
$var reg 1 }# noofs $end
$var reg 1 ~# ofs16 $end
$var reg 1 !$ ofs8 $end
$var reg 1 "$ write_post $end
$upscope $end
$scope module dec_alu $end
$var wire 1 K dest_flags $end
$var wire 8 #$ opcode [7:0] $end
$var wire 1 j# page2_valid $end
$var wire 1 k# page3_valid $end
$var wire 8 $$ postbyte0 [7:0] $end
$var reg 5 %$ alu_opcode [4:0] $end
$var reg 2 &$ dec_alu_right_path_mod [1:0] $end
$upscope $end
$scope module test_cond $end
$var wire 8 '$ CCR [7:0] $end
$var wire 8 ($ op [7:0] $end
$var wire 8 )$ opcode [7:0] $end
$var wire 1 j# page2_valid $end
$var wire 8 *$ postbyte0 [7:0] $end
$var reg 1 +$ cond_taken $end
$upscope $end
$upscope $end
$scope module imem $end
$var wire 16 ,$ addr [15:0] $end
$var wire 8 -$ data_i [7:0] $end
$var wire 8 .$ data_o [7:0] $end
$var wire 8 /$ mem0 [7:0] $end
$var wire 8 0$ mem1 [7:0] $end
$var wire 8 1$ mem2 [7:0] $end
$var wire 8 2$ mem3 [7:0] $end
$var wire 1 3$ oe $end
$var wire 1 4$ we $end
$var reg 8 5$ latecheddata [7:0] $end
$upscope $end
$upscope $end
$enddefinitions $end
#0
$dumpvars
bx 5$
14$
13$
b10001110 2$
b1011010 1$
b0 0$
b1111110 /$
bx .$
bx -$
bx ,$
0+$
bx *$
bx )$
bx ($
b0 '$
bx &$
bx %$
bx $$
bx #$
x"$
x!$
x~#
x}#
bx |#
1{#
0z#
b110 y#
b11 x#
bx w#
bx v#
bx u#
bx t#
bx s#
bx r#
bx q#
bx p#
bx o#
bx n#
bx m#
bx l#
xk#
xj#
bx i#
bx h#
bx g#
bx f#
bx e#
b111000000000 d#
b111100000000 c#
b1111111111111110 b#
bx a#
b1010010101011010 `#
b0 _#
bx ^#
bx ]#
bx \#
bx [#
bx Z#
0Y#
0X#
b1111111111111111 W#
b1111111111111111 V#
0U#
0T#
0S#
0R#
0Q#
0P#
b111000000000 O#
b111100000000 N#
b1111111111111110 M#
b1010010101011010 L#
b0 K#
b0 J#
bx I#
bx H#
0G#
bx F#
0E#
xD#
xC#
0B#
0A#
x@#
bx ?#
b1111111111111111 >#
b111100000000 =#
b1111111111111110 <#
b0 ;#
b1111111111111111 :#
bx 9#
bx 8#
bx 7#
bx 6#
b0 5#
x4#
x3#
bx 2#
bx 1#
bx 0#
bx /#
bx .#
x-#
b0 ,#
x+#
b0 *#
b100 )#
bx (#
x'#
x&#
bx %#
bx $#
bx ##
1"#
0!#
bx ~"
x}"
x|"
b0 {"
b0 z"
0y"
0x"
b100 w"
0v"
0u"
bx t"
bx s"
0r"
0q"
bx p"
xo"
bx n"
xm"
bx l"
b0 k"
bx j"
0i"
bx h"
bx g"
bx f"
bx e"
xd"
xc"
xb"
bx a"
0`"
bx _"
bx ^"
bx ]"
bx \"
bx ["
bx Z"
0Y"
b0 X"
b0 W"
0V"
0U"
b100 T"
0S"
xR"
0Q"
0P"
0O"
bx N"
xM"
bx L"
bx K"
bx J"
0I"
bx H"
0G"
bx F"
bx E"
bx D"
bx C"
xB"
xA"
x@"
0?"
bx >"
x="
bx <"
x;"
x:"
bx 9"
b0 8"
bx 7"
bx 6"
bx 5"
bx 4"
b11111111 3"
bx 2"
bx 1"
bx 0"
b0 /"
b100 ."
b0 -"
b0 ,"
bx +"
bx *"
b100 )"
b100 ("
bx '"
b1111111111111111 &"
b0 %"
b0 $"
bx #"
bx ""
bx !"
0~
x}
x|
0{
0z
xy
b0 x
b0 w
b0 v
bx u
bx t
bx s
xr
xq
bx p
bx o
bx n
bx m
0l
bx k
bx j
b0 i
0h
bx g
xf
xe
xd
bx c
bx b
xa
0`
0_
bx ^
bx ]
x\
bx [
b0 Z
bx Y
b1111111111111111 X
bx W
b111100000000 V
b1111111111111111 U
b1111111111111110 T
b1111111111111111 S
bx R
b0 Q
b0 P
1O
0N
0M
0L
xK
xJ
1I
xH
bx G
bx F
b110 E
b11 D
bx C
xB
xA
x@
x?
x>
bx =
0<
x;
bx :
bx 9
bx 8
bx 7
06
z5
b0 4
13
z2
z1
z0
bx /
bx .
0-
bx ,
b0 +
b100 *
1)
0(
0'
0&
bx %
bx $
bx #
bx "
bx !
$end
#5
b0 E"
0A"
0R"
0@"
1B"
1M"
b0 C"
b0 D"
b11111111 j"
b11111111 N"
b101 F"
b11111111 9"
b11111111 Z"
b11111111 ^"
b11111111 f"
b1 K"
b1 J"
0}"
0|"
b0 ~"
b1111111111111111 0"
b1111111111111111 l"
b1111111111111111 ##
1(
1-
#10
0(
0-
#15
1(
1-
#20
0(
0-
#25
1(
1-
#30
0(
0-
#35
1(
1-
#40
0(
0-
#45
1(
1-
#46
0)
0O
03
#50
0(
0-
#55
b1000 !"
b11111110 c
b11111111 b
b110110 $"
b110110 4
1d
b0z v
b0z w
b0z x
1(
1-
#60
0(
0-
#65
0d
b110111 $"
b110111 4
b1111111111111110 ]
b1111111111111110 !
b1111111111111110 ,
b1111111111111110 ,$
b1111111111111110 "
b0zz v
b0zz w
b0zz x
1(
1-
#70
0(
0-
#75
b0 5$
b0 #
b0 .
b0 .$
xL
xM
xN
b111000 $"
b111000 4
1_
03$
1&
bz v
bz w
bz x
1(
1-
#80
0(
0-
#85
b0xxxxxxxx m
b0xxxxxxxx 6#
b1111111111111111 ]
b1111111111111111 !
b1111111111111111 ,
b1111111111111111 ,$
b1111111111111111 "
b111010 $"
b111010 4
b0 j
0_
13$
0&
1(
1-
#90
0(
0-
#95
b111011 $"
b111011 4
1_
03$
1&
1(
1-
#100
0(
0-
#105
b101 ?#
b0 m
b0 6#
b1000 $"
b1000 4
1|
1C#
b0 k
0_
13$
0&
1(
1-
#110
0(
0-
#115
bx ?#
bx1 >#
bx g#
bx /#
bx ]#
bx R
bx 0#
b11111110 m
b11111110 6#
b0 M#
b1 :#
b0 b#
b0 T
b0 <#
b1 i
b1001 $"
b1001 4
0|
0C#
1(
1-
#120
0(
0-
#125
b0 ]
b0 !
b0 ,
b0 ,$
b0 "
b1010 $"
b1010 4
1(
1-
#130
0(
0-
#135
b1111110 5$
b1111110 #
b1111110 .
b1111110 .$
b11111111 4"
0;
b1111111111111111 Y
b1111111111111111 '"
b11111110 m
b11111110 6#
b101 ?#
b0 &$
b0 G
b1001 %$
b1001 :
b1001 *"
b11 x#
b11 D
b110 y#
b110 E
b1010 o#
1J
b1010 =
b1010 h#
b1101 s#
b1101 F
b1101 m#
b1010 q#
0H
b1010 C
b1010 l#
b1 >#
b1011 $"
b1011 4
b1111 t
0r
0k#
0q
0j#
1e
13#
1_
03$
1&
1(
1-
#140
0(
0-
#145
b0 5#
b0 Z
b0 ,#
b100 ."
b100 *
b100 )#
b0 /"
b0 +
b0 3"
b100 T"
b100 )"
b0 X"
b0 -"
b11111110 j"
b11111110 N"
0'#
0o"
0&#
0m"
b0 (#
b0 n"
0b"
0:"
b0 e"
b0 <"
0d"
0="
0c"
0;"
b11111111 ]"
b11111111 H"
b100 w"
b100 ("
b0 {"
b0 ,"
b0 X
b0 &"
b0 4"
0K
1+$
1<
bx ?#
1"#
0y"
0V"
0Y"
0U"
b0 W"
b1 \"
b1 a"
b1 h"
b1 %#
b11111111 >"
b11111111 ["
b11111111 _"
b11111111 g"
0!#
0x"
b0 z"
bx g#
bx /#
bx ]#
bx R
bx 0#
b0 V#
b0 S
b1111111111111110 m
b1111111111111110 6#
b1010 [
b1010 F#
b1010 W
b1010 8#
b0 Y
b0 '"
b0 %$
b0 :
b0 *"
b101 x#
b101 D
b101 y#
b101 E
b1111 o#
0J
b1111 =
b1111 h#
b1111 s#
b1111 F
b1111 m#
b1111 q#
b1111 C
b1111 l#
b1110 v#
b1111110 ($
b1111111111111111 >#
b111011110001 6"
b1001 2"
b1001 L"
b1001 s"
b1111111111111111 1"
b1111111111111111 p"
b1111111111111111 $#
b1 M#
b10 :#
b1 b#
b1 T
b1 <#
b1010 p#
b1010 7
b1010 r#
b1010 8
b1101 t#
b1101 9
b1101 9#
b1111 $"
b1111 4
b1111110 p
b1111110 i#
b1111110 u#
b1111110 #$
b1111110 )$
0_
13$
0&
0e
03#
1(
1-
#150
0(
0-
#155
b11111111 3"
b1111111111111111 X
b1111111111111111 &"
1@"
0B"
0M"
b1111111111111111 V#
b1111111111111111 S
b11111111 4"
b11111111 C"
b11111111 D"
b0 j"
b0 N"
b0 ]"
b0 H"
b0 F"
b1111 [
b1111 F#
b1111 W
b1111 8#
b1111111111111111 Y
b1111111111111111 '"
b0 \"
b0 a"
b0 h"
b0 %#
b0 >"
b0 ["
b0 _"
b0 g"
b0 9"
b0 Z"
b0 ^"
b0 f"
b0 K"
b0 J"
b1111 p#
b1111 7
b1111 r#
b1111 8
b1111 t#
b1111 9
b1111 9#
b0 2"
b0 L"
b0 s"
b0 1"
b0 p"
b0 $#
b0 0"
b0 l"
b0 ##
b111011110001 7"
b111011110001 +"
b111011110001 5"
b111011110001 t"
b0 6"
b11011 #"
b110000 $"
b110000 4
1(
1-
#160
0(
0-
#165
0A"
b0 E"
0@"
1c"
1;"
1B"
1M"
b0 C"
b0 D"
b1111111 j"
b1111111 N"
1b"
1:"
b11111110 e"
b11111110 <"
0d"
0="
b11111111 ]"
b11111111 H"
b101 F"
b101 ?#
b11111111 >"
b11111111 ["
b11111111 _"
b11111111 g"
b11111111 9"
b11111111 Z"
b11111111 ^"
b11111111 f"
b1 K"
b1 J"
1&#
1m"
b1111111111111110 (#
b1111111111111110 n"
b10 >#
b1110111100010000 7"
b1110111100010000 +"
b1110111100010000 5"
b1110111100010000 t"
b111011110001 6"
b1111111111111111 1"
b1111111111111111 p"
b1111111111111111 $#
b1111111111111111 0"
b1111111111111111 l"
b1111111111111111 ##
1e
13#
b110001 $"
b110001 4
b1 ]
b1 !
b1 ,
b1 ,$
b1 "
1(
1-
#170
0(
0-
#175
b0 5$
b0 #
b0 .
b0 .$
bx ?#
bx g#
bx /#
bx ]#
bx R
bx 0#
b1111111111111110 m
b1111111111111110 6#
b1111111111111111 >#
b10 M#
b11 :#
b10 b#
b10 T
b10 <#
b1111111000000001 7"
b1111111000000001 +"
b1111111000000001 5"
b1111111000000001 t"
b110010 $"
b110010 4
1_
03$
1&
0e
03#
1(
1-
#180
0(
0-
#185
b11111110 m
b11111110 6#
b110011 $"
b110011 4
b0 b
0_
13$
0&
1(
1-
#190
0(
0-
#195
b101 ?#
b11 >#
1e
13#
b110100 $"
b110100 4
b10 ]
b10 !
b10 ,
b10 ,$
b10 "
1(
1-
#200
0(
0-
#205
b1011010 5$
b1011010 #
b1011010 .
b1011010 .$
bx ?#
bx g#
bx /#
bx ]#
bx R
bx 0#
b11111110 m
b11111110 6#
b1111111111111111 >#
b11 M#
b100 :#
b11 b#
b11 T
b11 <#
b110101 $"
b110101 4
1_
03$
1&
0e
03#
1(
1-
#210
0(
0-
#215
b101 ?#
b1011010 m
b1011010 6#
b11011 $"
b11011 4
1|
1C#
b1011010 c
0_
13$
0&
1(
1-
#220
0(
0-
#225
bx ?#
bx g#
bx /#
bx ]#
bx R
bx 0#
b1011010 m
b1011010 6#
b1011010 M#
b1011011 :#
b1011010 b#
b1011010 T
b1011010 <#
b1001 $"
b1001 4
0|
0C#
1(
1-
#230
0(
0-
#235
b1011010 ]
b1011010 !
b1011010 ,
b1011010 ,$
b1011010 "
b1010 $"
b1010 4
1(
1-
#240
0(
0-
#245
b1111 5$
b1111 #
b1111 .
b1111 .$
b101 ?#
b1011011 >#
b1011 $"
b1011 4
1e
13#
1_
03$
1&
1(
1-
#250
0(
0-
#255
b0 4"
1K
b0 Y
b0 '"
0+$
0<
bx ?#
bx g#
bx /#
bx ]#
bx R
bx 0#
b1011010 m
b1011010 6#
b10 &$
b10 G
b100 %$
b100 :
b100 *"
b11 x#
b11 D
b0 y#
b0 E
b1100 o#
1J
b1100 =
b1100 h#
b1111 v#
b1111 ($
b1111111111111111 >#
b1011011 M#
b1011100 :#
b1011011 b#
b1011011 T
b1011011 <#
b1111 $"
b1111 4
b1111 p
b1111 i#
b1111 u#
b1111 #$
b1111 )$
0_
13$
0&
0e
03#
1(
1-
#260
0(
0-
#265
b0 5#
b0 Z
b0 ,#
b100 ."
b100 *
b100 )#
b0 /"
b0 +
b100 T"
b100 )"
b0 X"
b0 -"
b11111111 j"
b11111111 N"
0b"
0:"
b11111111 e"
b11111111 <"
0c"
0;"
b0 ]"
b0 H"
b0 W"
b100 h"
b0 >"
b0 ["
b0 _"
b0 g"
0&#
0m"
b1111111111111111 (#
b1111111111111111 n"
b1100 [
b1100 F#
b111011110001 7"
b111011110001 +"
b111011110001 5"
b111011110001 t"
b0 6"
b100 2"
b100 L"
b100 s"
b0 1"
b0 p"
b0 $#
b1100 p#
b1100 7
b10001 #"
b110011 $"
b110011 4
1(
1-
#270
0(
0-
#275
b101 ?#
b1011100 >#
b0 7"
b0 +"
b0 5"
b0 t"
1e
13#
b110100 $"
b110100 4
b1011011 ]
b1011011 !
b1011011 ,
b1011011 ,$
b1011011 "
1(
1-
#280
0(
0-
#285
b10100 5$
b10100 #
b10100 .
b10100 .$
bx ?#
bx g#
bx /#
bx ]#
bx R
bx 0#
b1011010 m
b1011010 6#
b1111111111111111 >#
b1011100 M#
b1011101 :#
b1011100 b#
b1011100 T
b1011100 <#
b110101 $"
b110101 4
1_
03$
1&
0e
03#
1(
1-
#290
0(
0-
#295
b10100 m
b10100 6#
b10001 $"
b10001 4
b10100 c
0_
13$
0&
1(
1-
#300
0(
0-
#305
1B#
1z
1E#
b10010 $"
b10010 4
1(
1-
#310
0(
0-
#315
1v"
1S"
0B#
1Y#
b100 P
b100 %"
b100 8"
b100 k"
b100 *#
b100 '$
b111110 $"
b111110 4
b1001 !"
0z
0E#
1(
1-
#320
0(
0-
#325
1}"
1`
04$
1'
b111111 $"
b111111 4
b0 ^
b0 $
b0 /
b0 -$
b0 %
b10100 ]
b10100 !
b10100 ,
b10100 ,$
b10100 "
1(
1-
#330
0(
0-
#335
b1001 $"
b1001 4
0`
14$
0'
1(
1-
#340
0(
0-
#345
b1011100 ]
b1011100 !
b1011100 ,
b1011100 ,$
b1011100 "
b1010 $"
b1010 4
1(
1-
#350
0(
0-
#355
b10011101 5$
b10011101 #
b10011101 .
b10011101 .$
b101 ?#
b1011101 >#
b1011 $"
b1011 4
1e
13#
1_
03$
1&
1(
1-
#360
0(
0-
#365
b11111111 4"
0K
b1111111111111111 Y
b1111111111111111 '"
bx ?#
bx g#
bx /#
bx ]#
bx R
bx 0#
b10100 m
b10100 6#
b0 &$
b0 G
b0 %$
b0 :
b0 *"
b100 y#
b100 E
b11 x#
b11 D
b1111 o#
0J
b1111 =
b1111 h#
b1101 v#
b10011101 ($
b1111111111111111 >#
b1011101 M#
b1011110 :#
b1011101 b#
b1011101 T
b1011101 <#
b1111 $"
b1111 4
b10011101 p
b10011101 i#
b10011101 u#
b10011101 #$
b10011101 )$
0_
13$
0&
0e
03#
1(
1-
#370
0(
0-
#375
b1111111 j"
b1111111 N"
1b"
1:"
b11111110 e"
b11111110 <"
1c"
1;"
b11111111 ]"
b11111111 H"
b1111 [
b1111 F#
b0 h"
b11111111 >"
b11111111 ["
b11111111 _"
b11111111 g"
1&#
1m"
b1111111111111110 (#
b1111111111111110 n"
b1111 p#
b1111 7
b0 2"
b0 L"
b0 s"
b1111111111111111 1"
b1111111111111111 p"
b1111111111111111 $#
b1110111100010000 7"
b1110111100010000 +"
b1110111100010000 5"
b1110111100010000 t"
b111011110001 6"
b11100 #"
b110011 $"
b110011 4
1(
1-
#380
0(
0-
#385
b101 ?#
b1011110 >#
b1111111000000001 7"
b1111111000000001 +"
b1111111000000001 5"
b1111111000000001 t"
1e
13#
b110100 $"
b110100 4
b1011101 ]
b1011101 !
b1011101 ,
b1011101 ,$
b1011101 "
1(
1-
#390
0(
0-
#395
b1001001 5$
b1001001 #
b1001001 .
b1001001 .$
bx ?#
bx g#
bx /#
bx ]#
bx R
bx 0#
b10100 m
b10100 6#
b1111111111111111 >#
b1011110 M#
b1011111 :#
b1011110 b#
b1011110 T
b1011110 <#
b110101 $"
b110101 4
1_
03$
1&
0e
03#
1(
1-
#400
0(
0-
#405
b1001001 m
b1001001 6#
b11100 $"
b11100 4
b1001001 c
0_
13$
0&
1(
1-
#410
0(
0-
#415
b1011110 3"
b1011110 X
b1011110 &"
b1011110 V#
b1011110 S
b101 [
b101 F#
b101 W
b101 8#
b11011 #"
b100010 $"
b100010 4
b101 t
1(
1-
#420
0(
0-
