sim/dump.vcd
$date
	Mon Dec 30 08:33:05 2013
$end
$version
	Icarus Verilog
$end
$timescale
	1ns
$end
$scope module tb $end
$var wire 16 ! addr_o [15:0] $end
$var wire 8 " data_o_o [7:0] $end
$var wire 1 # we $end
$var wire 1 $ oe $end
$var wire 8 % data_o [7:0] $end
$var wire 8 & data_i [7:0] $end
$var wire 16 ' addr [15:0] $end
$var reg 1 ( clk $end
$var reg 1 ) reset $end
$scope module cpu $end
$var wire 1 ( cpu_clk $end
$var wire 1 * cpu_firq_n $end
$var wire 1 + cpu_irq_n $end
$var wire 1 , cpu_nmi_n $end
$var wire 1 ) cpu_reset $end
$var wire 6 - cpu_state_o [5:0] $end
$var wire 1 . k_clk $end
$var wire 1 / k_firq_req $end
$var wire 1 0 k_irq_req $end
$var wire 1 1 k_nmi_req $end
$var wire 1 2 k_reset $end
$var wire 16 3 regs_o_su [15:0] $end
$var wire 16 4 regs_o_right_path_data [15:0] $end
$var wire 16 5 regs_o_pc [15:0] $end
$var wire 16 6 regs_o_left_path_data [15:0] $end
$var wire 16 7 regs_o_eamem_addr [15:0] $end
$var wire 8 8 regs_o_dp [7:0] $end
$var wire 8 9 regs_o_CCR [7:0] $end
$var wire 1 : dec_o_write_flags $end
$var wire 1 ; dec_o_wdest $end
$var wire 1 < dec_o_use_s $end
$var wire 1 = dec_o_source_size $end
$var wire 2 > dec_o_right_path_mod [1:0] $end
$var wire 4 ? dec_o_right_path_addr [3:0] $end
$var wire 3 @ dec_o_p1_optype [2:0] $end
$var wire 3 A dec_o_p1_mode [2:0] $end
$var wire 4 B dec_o_left_path_addr [3:0] $end
$var wire 1 C dec_o_ea_wpost $end
$var wire 1 D dec_o_ea_ofs8 $end
$var wire 1 E dec_o_ea_ofs16 $end
$var wire 1 F dec_o_ea_ofs0 $end
$var wire 1 G dec_o_ea_indirect $end
$var wire 4 H dec_o_dest_reg_addr [3:0] $end
$var wire 1 I dec_o_cond_taken $end
$var wire 1 J dec_o_alu_size $end
$var wire 5 K dec_o_alu_opcode [4:0] $end
$var wire 1 # cpu_we_o $end
$var wire 1 $ cpu_oe_o $end
$var wire 8 L cpu_data_o [7:0] $end
$var wire 8 M cpu_data_i [7:0] $end
$var wire 16 N cpu_addr_o [15:0] $end
$var wire 16 O alu_o_result [15:0] $end
$var wire 8 P alu_o_CCR [7:0] $end
$var reg 4 Q datamux_o_alu_in_left_path_addr [3:0] $end
$var reg 16 R datamux_o_alu_in_left_path_data [15:0] $end
$var reg 16 S datamux_o_alu_in_right_path_data [15:0] $end
$var reg 16 T datamux_o_dest [15:0] $end
$var reg 4 U datamux_o_dest_reg_addr [3:0] $end
$var reg 1 V k_clear_e $end
$var reg 16 W k_cpu_addr [15:0] $end
$var reg 8 X k_cpu_data_o [7:0] $end
$var reg 1 $ k_cpu_oe $end
$var reg 1 # k_cpu_we $end
$var reg 1 Y k_dec_su $end
$var reg 8 Z k_eahi [7:0] $end
$var reg 8 [ k_ealo [7:0] $end
$var reg 1 \ k_forced_mem_size $end
$var reg 1 ] k_inc_pc $end
$var reg 1 ^ k_inc_su $end
$var reg 8 _ k_ind_ea [7:0] $end
$var reg 2 ` k_mem_dest [1:0] $end
$var reg 8 a k_memhi [7:0] $end
$var reg 8 b k_memlo [7:0] $end
$var reg 16 c k_new_pc [15:0] $end
$var reg 8 d k_ofshi [7:0] $end
$var reg 8 e k_ofslo [7:0] $end
$var reg 8 f k_opcode [7:0] $end
$var reg 1 g k_p2_valid $end
$var reg 1 h k_p3_valid $end
$var reg 8 i k_postbyte0 [7:0] $end
$var reg 8 j k_pp_active_reg [7:0] $end
$var reg 8 k k_pp_regs [7:0] $end
$var reg 3 l k_reg_firq [2:0] $end
$var reg 3 m k_reg_irq [2:0] $end
$var reg 3 n k_reg_nmi [2:0] $end
$var reg 1 o k_set_e $end
$var reg 1 p k_write_dest $end
$var reg 1 q k_write_pc $end
$var reg 1 r k_write_post_incdec $end
$var reg 6 s next_mem_state [5:0] $end
$var reg 6 t next_push_state [5:0] $end
$var reg 6 u next_state [5:0] $end
$var reg 6 v state [5:0] $end
$scope module alu $end
$var wire 16 w a_in [15:0] $end
$var wire 16 x and16_r [15:0] $end
$var wire 16 y and16_w [15:0] $end
$var wire 8 z and8_r [7:0] $end
$var wire 8 { and8_w [7:0] $end
$var wire 16 | asr16_r [15:0] $end
$var wire 8 } asr8_r [7:0] $end
$var wire 16 ~ b_in [15:0] $end
$var wire 1 !" cand16_r $end
$var wire 1 "" cand8_r $end
$var wire 1 . clk $end
$var wire 1 #" cneg16_r $end
$var wire 1 $" cneg8_r $end
$var wire 16 %" com16_r [15:0] $end
$var wire 16 &" com16_w [15:0] $end
$var wire 8 '" com8_r [7:0] $end
$var wire 8 (" com8_w [7:0] $end
$var wire 16 )" eor16_r [15:0] $end
$var wire 16 *" eor16_w [15:0] $end
$var wire 8 +" eor8_r [7:0] $end
$var wire 8 ," eor8_w [7:0] $end
$var wire 16 -" mul16_r [15:0] $end
$var wire 16 ." neg16_r [15:0] $end
$var wire 8 /" neg8_r [7:0] $end
$var wire 16 0" or16_r [15:0] $end
$var wire 16 1" or16_w [15:0] $end
$var wire 8 2" or8_r [7:0] $end
$var wire 8 3" or8_w [7:0] $end
$var wire 16 4" rol16_r [15:0] $end
$var wire 8 5" rol8_r [7:0] $end
$var wire 16 6" ror16_r [15:0] $end
$var wire 8 7" ror8_r [7:0] $end
$var wire 16 8" shl16_r [15:0] $end
$var wire 8 9" shl8_r [7:0] $end
$var wire 16 :" shr16_r [15:0] $end
$var wire 8 ;" shr8_r [7:0] $end
$var wire 1 <" vadc16_r $end
$var wire 1 =" vadc8_r $end
$var wire 1 >" vadd16_r $end
$var wire 1 ?" vadd8_r $end
$var wire 1 @" vand16_r $end
$var wire 1 A" vand8_r $end
$var wire 1 B" vasr16_r $end
$var wire 1 C" vasr8_r $end
$var wire 1 D" vcom16_r $end
$var wire 1 E" vcom8_r $end
$var wire 1 F" vneg16_r $end
$var wire 1 G" vneg8_r $end
$var wire 1 H" vrol16_r $end
$var wire 1 I" vrol8_r $end
$var wire 1 J" vror16_r $end
$var wire 1 K" vror8_r $end
$var wire 1 L" vsbc16_r $end
$var wire 1 M" vsbc8_r $end
$var wire 1 N" vshl16_r $end
$var wire 1 O" vshl8_r $end
$var wire 1 P" vshr16_r $end
$var wire 1 Q" vshr8_r $end
$var wire 1 R" vsub16_r $end
$var wire 1 S" vsub8_r $end
$var wire 1 T" z_in $end
$var wire 1 U" v_in $end
$var wire 1 J sz_in $end
$var wire 8 V" sub8_w [7:0] $end
$var wire 8 W" sub8_r [7:0] $end
$var wire 16 X" sub16_w [15:0] $end
$var wire 16 Y" sub16_r [15:0] $end
$var wire 8 Z" shr8_w [7:0] $end
$var wire 16 [" shr16_w [15:0] $end
$var wire 8 \" shl8_w [7:0] $end
$var wire 16 ]" shl16_w [15:0] $end
$var wire 8 ^" sbc8_w [7:0] $end
$var wire 8 _" sbc8_r [7:0] $end
$var wire 16 `" sbc16_w [15:0] $end
$var wire 16 a" sbc16_r [15:0] $end
$var wire 8 b" ror8_w [7:0] $end
$var wire 16 c" ror16_w [15:0] $end
$var wire 8 d" rol8_w [7:0] $end
$var wire 16 e" rol16_w [15:0] $end
$var wire 5 f" opcode_in [4:0] $end
$var wire 8 g" neg8_w [7:0] $end
$var wire 16 h" neg16_w [15:0] $end
$var wire 1 i" n_in $end
$var wire 16 j" mul16_w [15:0] $end
$var wire 1 k" h_in $end
$var wire 1 l" daa_lnm9 $end
$var wire 4 m" daa8l_r [3:0] $end
$var wire 4 n" daa8h_r [3:0] $end
$var wire 1 o" csub8_w $end
$var wire 1 p" csub8_r $end
$var wire 1 q" csub16_w $end
$var wire 1 r" csub16_r $end
$var wire 1 s" cshr8_r $end
$var wire 1 t" cshr16_r $end
$var wire 1 u" cshl8_r $end
$var wire 1 v" cshl16_r $end
$var wire 1 w" csbc8_w $end
$var wire 1 x" csbc8_r $end
$var wire 1 y" csbc16_w $end
$var wire 1 z" csbc16_r $end
$var wire 1 {" cror8_r $end
$var wire 1 |" cror16_r $end
$var wire 1 }" crol8_r $end
$var wire 1 ~" crol16_r $end
$var wire 1 !# cmul16_r $end
$var wire 1 "# cdaa8_r $end
$var wire 1 ## ccom8_r $end
$var wire 1 $# ccom16_r $end
$var wire 1 %# casr8_r $end
$var wire 1 &# casr16_r $end
$var wire 1 '# cadd8_w $end
$var wire 1 (# cadd8_r $end
$var wire 1 )# cadd16_w $end
$var wire 1 *# cadd16_r $end
$var wire 1 +# cadc8_w $end
$var wire 1 ,# cadc8_r $end
$var wire 1 -# cadc16_w $end
$var wire 1 .# cadc16_r $end
$var wire 1 /# c_in $end
$var wire 8 0# asr8_w [7:0] $end
$var wire 16 1# asr16_w [15:0] $end
$var wire 8 2# add8_w [7:0] $end
$var wire 8 3# add8_r [7:0] $end
$var wire 16 4# add16_w [15:0] $end
$var wire 16 5# add16_r [15:0] $end
$var wire 8 6# adc8_w [7:0] $end
$var wire 8 7# adc8_r [7:0] $end
$var wire 16 8# adc16_w [15:0] $end
$var wire 16 9# adc16_r [15:0] $end
$var wire 8 :# CCR [7:0] $end
$var reg 8 ;# CCRo [7:0] $end
$var reg 1 <# c16 $end
$var reg 1 =# c8 $end
$var reg 1 ># h8 $end
$var reg 1 ?# n16 $end
$var reg 1 @# n8 $end
$var reg 16 A# q16 [15:0] $end
$var reg 8 B# q8 [7:0] $end
$var reg 16 C# q_out [15:0] $end
$var reg 1 D# reg_n_in $end
$var reg 1 E# reg_z_in $end
$var reg 16 F# regq16 [15:0] $end
$var reg 8 G# regq8 [7:0] $end
$var reg 1 H# v16 $end
$var reg 1 I# v8 $end
$var reg 1 J# z16 $end
$var reg 1 K# z8 $end
$upscope $end
$scope module dec_alu $end
$var wire 8 L# opcode [7:0] $end
$var wire 1 g page2_valid $end
$var wire 1 h page3_valid $end
$var wire 8 M# postbyte0 [7:0] $end
$var wire 1 : dest_flags $end
$var reg 5 N# alu_opcode [4:0] $end
$var reg 2 O# dec_alu_right_path_mod [1:0] $end
$upscope $end
$scope module dec_ea $end
$var wire 8 P# eapostbyte [7:0] $end
$var wire 1 G isind $end
$var reg 1 F noofs $end
$var reg 1 E ofs16 $end
$var reg 1 D ofs8 $end
$var reg 1 C write_post $end
$upscope $end
$scope module dec_op $end
$var wire 8 Q# opcode [7:0] $end
$var wire 1 g page2_valid $end
$var wire 1 h page3_valid $end
$var wire 8 R# postbyte0 [7:0] $end
$var wire 4 S# oplo [3:0] $end
$var reg 3 T# mode [2:0] $end
$var reg 3 U# optype [2:0] $end
$var reg 1 V# size $end
$var reg 1 < use_s $end
$upscope $end
$scope module dec_regs $end
$var wire 8 W# opcode [7:0] $end
$var wire 1 g page2_valid $end
$var wire 1 h page3_valid $end
$var wire 8 X# postbyte0 [7:0] $end
$var wire 1 ; write_dest $end
$var wire 1 = source_size $end
$var wire 1 J result_size $end
$var reg 4 Y# dest_reg [3:0] $end
$var reg 4 Z# path_left_addr [3:0] $end
$var reg 4 [# path_right_addr [3:0] $end
$upscope $end
$scope module regs $end
$var wire 8 \# CCR_in [7:0] $end
$var wire 1 V clear_e $end
$var wire 1 . clk_in $end
$var wire 16 ]# data_w [15:0] $end
$var wire 1 Y dec_su $end
$var wire 8 ^# eapostbyte [7:0] $end
$var wire 1 ] inc_pc $end
$var wire 1 ^ inc_su $end
$var wire 16 _# new_pc [15:0] $end
$var wire 16 `# offset16 [15:0] $end
$var wire 4 a# path_left_addr [3:0] $end
$var wire 4 b# path_right_addr [3:0] $end
$var wire 8 c# reg_dp [7:0] $end
$var wire 16 d# reg_pc [15:0] $end
$var wire 1 o set_e $end
$var wire 1 < use_s $end
$var wire 1 e# write_flags $end
$var wire 1 q write_pc $end
$var wire 1 r write_post $end
$var wire 1 p write_reg $end
$var wire 4 f# write_reg_addr [3:0] $end
$var wire 16 g# reg_su [15:0] $end
$var wire 8 h# CCR_o [7:0] $end
$var reg 8 i# ACCA [7:0] $end
$var reg 8 j# ACCB [7:0] $end
$var reg 8 k# DP [7:0] $end
$var reg 16 l# IX [15:0] $end
$var reg 16 m# IY [15:0] $end
$var reg 16 n# PC [15:0] $end
$var reg 16 o# SS [15:0] $end
$var reg 16 p# SU [15:0] $end
$var reg 1 q# cff $end
$var reg 16 r# ea_reg [15:0] $end
$var reg 16 s# ea_reg_post [15:0] $end
$var reg 16 t# eamem_addr [15:0] $end
$var reg 1 u# eflag $end
$var reg 1 v# fflag $end
$var reg 1 w# hflag $end
$var reg 1 x# intff $end
$var reg 1 y# nff $end
$var reg 16 z# path_left_data [15:0] $end
$var reg 16 {# path_right_data [15:0] $end
$var reg 1 |# vff $end
$var reg 1 }# zff $end
$upscope $end
$scope module test_cond $end
$var wire 8 ~# CCR [7:0] $end
$var wire 8 !$ opcode [7:0] $end
$var wire 1 g page2_valid $end
$var wire 8 "$ postbyte0 [7:0] $end
$var wire 8 #$ op [7:0] $end
$var reg 1 I cond_taken $end
$upscope $end
$upscope $end
$scope module imem $end
$var wire 16 $$ addr [15:0] $end
$var wire 8 %$ data_i [7:0] $end
$var wire 8 &$ data_o [7:0] $end
$var wire 8 '$ mem0 [7:0] $end
$var wire 8 ($ mem1 [7:0] $end
$var wire 8 )$ mem2 [7:0] $end
$var wire 8 *$ mem3 [7:0] $end
$var wire 1 +$ oe $end
$var wire 1 ,$ we $end
$var reg 8 -$ latecheddata [7:0] $end
$upscope $end
$upscope $end
$enddefinitions $end
#0
$dumpvars
bx -$
1,$
1+$
b0 *$
b11000110 )$
b10 ($
b10000110 '$
bx &$
bx %$
bx $$
bx #$
bx "$
bx !$
b0 ~#
0}#
0|#
b1011111011101111 {#
b1011111011101111 z#
0y#
0x#
0w#
0v#
0u#
bx t#
bx s#
bx r#
0q#
b111000000000 p#
b111100000000 o#
b1111111111111110 n#
b1010010101011010 m#
b0 l#
b0 k#
bx j#
bx i#
b0 h#
b111x00000000 g#
bx f#
0e#
b1111111111111110 d#
b0 c#
bx b#
bx a#
bx `#
bx _#
bx ^#
bx ]#
b0xx00 \#
bx [#
bx Z#
bx Y#
bx X#
bx W#
xV#
bx U#
bx T#
bx S#
bx R#
bx Q#
bx P#
bx O#
bx N#
bx M#
bx L#
xK#
xJ#
0I#
0H#
bx G#
bx F#
xE#
xD#
bx C#
b0 B#
b0 A#
x@#
x?#
0>#
0=#
0<#
b0xx00 ;#
b0 :#
bx 9#
bx 8#
bx 7#
bx 6#
bx 5#
bx 4#
bx 3#
bx 2#
b1101111101110111 1#
b11110111 0#
0/#
x.#
x-#
x,#
x+#
x*#
x)#
x(#
x'#
1&#
1%#
1$#
1##
1"#
x!#
1~"
1}"
1|"
1{"
xz"
xy"
xx"
xw"
1v"
1u"
1t"
1s"
xr"
xq"
xp"
xo"
b100 n"
b101 m"
1l"
0k"
bx j"
0i"
b100000100010001 h"
b10001 g"
bx f"
b111110111011110 e"
b11011110 d"
b101111101110111 c"
b1110111 b"
bx a"
bx `"
bx _"
bx ^"
b111110111011110 ]"
b11011110 \"
b101111101110111 ["
b1110111 Z"
bx Y"
bx X"
bx W"
bx V"
0U"
0T"
xS"
xR"
1Q"
1P"
0O"
1N"
xM"
xL"
1K"
1J"
0I"
1H"
0G"
0F"
0E"
0D"
0C"
0B"
0A"
0@"
x?"
x>"
x="
x<"
b1110111 ;"
b101111101110111 :"
b11011110 9"
b111110111011110 8"
b1110111 7"
b101111101110111 6"
b11011110 5"
b111110111011110 4"
b111x1111 3"
b111x1111 2"
b1x11111x111x1111 1"
b1x11111x111x1111 0"
b10001 /"
b100000100010001 ."
bx -"
bx ,"
bx +"
bx *"
bx )"
b10000 ("
b10000 '"
b100000100010000 &"
b100000100010000 %"
1$"
1#"
0""
0!"
bx ~
b11110111 }
b1101111101110111 |
bx0xxxx {
bx0xxxx z
bx0xxxxx0xxx0xxxx y
bx0xxxxx0xxx0xxxx x
b1011111011101111 w
b0 v
bx u
bx t
bx s
xr
xq
xp
xo
b0 n
b0 m
b0 l
bx k
bx j
bx i
xh
xg
bx f
bx e
bx d
bx c
bx b
bx a
b0 `
bx _
x^
x]
x\
bx [
bx Z
xY
bx X
bx W
xV
bx U
bx T
bx S
b1011111011101111 R
bx Q
b0xx00 P
bx O
bx N
bx M
bx L
bx K
xJ
0I
bx H
xG
xF
xE
xD
xC
bx B
bx A
bx @
bx ?
bx >
x=
x<
x;
x:
b0 9
b0 8
bx 7
b1011111011101111 6
b1111111111111110 5
b1011111011101111 4
b111x00000000 3
12
01
00
0/
0.
b0 -
z,
z+
z*
1)
0(
bx '
bx &
bx %
0$
0#
bx "
bx !
$end
#5
b0 T
b0 ]#
b100 P
b100 ;#
b100 \#
b0 O
b0 C#
1J#
0?#
1K#
0@#
0E#
0D#
b0 F#
b0 G#
1.
1(
#10
0.
0(
#15
1.
1(
#20
0.
0(
#25
1.
1(
#30
0.
0(
#35
1.
1(
#40
0.
0(
#45
1.
1(
#46
02
0)
#50
0.
0(
#55
b1000 s
b11111110 [
b11111111 Z
b110110 -
b110110 v
1\
b0z l
b0z m
b0z n
1.
1(
#60
0.
0(
#65
0\
b110111 -
b110111 v
b1111111111111110 !
b1111111111111110 '
b1111111111111110 N
b1111111111111110 W
b1111111111111110 $$
b0zz l
b0zz m
b0zz n
1.
1(
#70
0.
0(
#75
b0 &
b0 M
b0 &$
b0 -$
x/
x0
x1
b111000 -
b111000 v
0+$
1$
bz l
bz m
bz n
1.
1(
#80
0.
0(
#85
b0xxxxxxxx c
b0xxxxxxxx _#
b1111111111111111 !
b1111111111111111 '
b1111111111111111 N
b1111111111111111 W
b1111111111111111 $$
b111010 -
b111010 v
b0 a
1+$
0$
1.
1(
#90
0.
0(
#95
b111011 -
b111011 v
0+$
1$
1.
1(
#100
0.
0(
#105
b0 c
b0 _#
b1000 -
b1000 v
1q
b0 b
1+$
0$
1.
1(
#110
0.
0(
#115
bx 7
bx t#
b0 5
b0 d#
b0 n#
b1001 -
b1001 v
0q
1.
1(
#120
0.
0(
#125
b0 !
b0 '
b0 N
b0 W
b0 $$
b1010 -
b1010 v
1.
1(
#130
0.
0(
#135
b10000110 &
b10000110 M
b10000110 &$
b10000110 -$
1]
b1011 -
b1011 v
0+$
1$
1.
1(
#140
0.
0(
#145
xF"
x#"
xG"
x$"
0R"
0L"
x##
bx '"
bx ("
b0 z
b0 {
bx 2"
bx 3"
xC"
xB"
xQ"
xP"
xO"
0N"
xK"
xJ"
xI"
0H"
bx m"
bx n"
0J
b11111111xxxxxxxx %"
b11111111xxxxxxxx &"
b0 x
b0 y
b0xxxxxxxx 0"
b0xxxxxxxx 1"
b0xxxxxxxx )"
b0xxxxxxxx *"
bx /"
bx g"
bx }
bx 0#
b0xxxxxxx |
b0xxxxxxx 1#
b0xxxxxxx ;"
b0xxxxxxx Z"
b0xxxxxxx :"
b0xxxxxxx ["
bx0 5"
bx0 9"
bx0 \"
b0xxxxxxxx0 8"
b0xxxxxxxx0 ]"
b0xxxxxxx 7"
b0xxxxxxx b"
b0xxxxxxx 6"
b0xxxxxxx c"
bx0 d"
b0xxxxxxxx0 4"
b0xxxxxxxx0 e"
x%#
x&#
xs"
xt"
xu"
0v"
x{"
x|"
x}"
0~"
xl"
x"#
b111100000000 3
b111100000000 g#
b0 S
b0 ~
bx ."
bx h"
b0xxxxxxxx R
b0xxxxxxxx w
bx 7
bx t#
b0xxxxxxxx 6
b0xxxxxxxx z#
b1000 U
b1000 f#
b1000 Q
b1000 a#
b0 >
b0 O#
1:
b110 K
b110 f"
b110 N#
0V#
b1 A
b1 T#
1<
b110 @
b110 U#
b110 S#
1;
b1000 H
b1000 Y#
b1101 ?
b1101 [#
b1101 b#
0=
b1000 B
b1000 Z#
b10000110 #$
b1 5
b1 d#
b1 n#
b0 j
0h
0g
b1111 -
b1111 v
b10000110 f
b10000110 L#
b10000110 Q#
b10000110 W#
b10000110 !$
1+$
0$
0]
1.
1(
#150
0.
0(
#155
b10001 u
b110011 -
b110011 v
1.
1(
#160
0.
0(
#165
1]
b110100 -
b110100 v
b1 !
b1 '
b1 N
b1 W
b1 $$
1.
1(
#170
0.
0(
#175
b10 &
b10 M
b10 &$
b10 -$
bx 7
bx t#
b10 5
b10 d#
b10 n#
b110101 -
b110101 v
0+$
1$
0]
1.
1(
#180
0.
0(
#185
b0x0 z
b0x0 {
bx1x 2"
bx1x 3"
b0x0 x
b0x0 y
b0xxxxxx1x 0"
b0xxxxxx1x 1"
b10 A#
b10 B#
b10 S
b10 ~
b10 c
b10 _#
b10001 -
b10001 v
b10 b
1+$
0$
1.
1(
#190
0.
0(
#195
b10 T
b10 ]#
b0 P
b0 ;#
b0 \#
b10 O
b10 C#
0J#
0K#
1e#
b10 F#
b10 G#
1p
b10010 -
b10010 v
1.
1(
#200
0.
0(
#205
1M"
0G"
0?"
0="
0>"
0<"
1$"
0F"
0S"
0"#
b100 3#
b100 7#
0(#
0,#
b0 W"
0p"
b0 _"
0x"
1##
1#"
0C"
0O"
0I"
b100 2#
0'#
b100 5#
b100 9#
0*#
0.#
b100 6#
0+#
b0 V"
0o"
b0 Y"
0r"
b0 ^"
0w"
b0 a"
0z"
b11111101 '"
b11111101 ("
b10 z
b10 {
b10 2"
b10 3"
b0 +"
b0 ,"
0!#
0B"
0Q"
0P"
0K"
0J"
b10 m"
b0 n"
b1111111111111101 %"
b1111111111111101 &"
b10 x
b10 y
b10 0"
b10 1"
b0 )"
b0 *"
b100 4#
0)#
b100 8#
0-#
b0 X"
0q"
b0 `"
0y"
b11111110 /"
b11111110 g"
b10 A#
b10 B#
b1 }
b1 0#
b1 |
b1 1#
b1 ;"
b1 Z"
b1 :"
b1 ["
b100 5"
b100 9"
b100 \"
b100 8"
b100 ]"
b1 7"
b1 b"
b1 6"
b1 c"
b100 d"
b100 4"
b100 e"
b100 -"
b100 j"
0%#
0&#
0s"
0t"
0u"
0{"
0|"
0}"
0l"
b1111111111111110 ."
b1111111111111110 h"
b10 R
b10 w
bx 7
bx t#
b10 6
b10 z#
0e#
b10 i#
b1001 -
b1001 v
b1001 s
0p
1.
1(
#210
0.
0(
#215
b10 !
b10 '
b10 N
b10 W
b10 $$
b1010 -
b1010 v
1.
1(
#220
0.
0(
#225
b11000110 &
b11000110 M
b11000110 &$
b11000110 -$
1]
b1011 -
b1011 v
0+$
1$
1.
1(
#230
0.
0(
#235
xF"
x#"
x$"
xG"
xM"
x?"
x="
x>"
x<"
xS"
bx 3#
bx 7#
x(#
x,#
bx W"
xp"
bx _"
xx"
x##
bx 2#
x'#
bx 5#
bx 9#
x*#
x.#
bx 6#
x+#
bx V"
xo"
bx Y"
xr"
bx ^"
xw"
bx a"
xz"
bx '"
bx ("
b0x0 z
b0x0 {
bx1x 2"
bx1x 3"
bx +"
bx ,"
x!#
xC"
xB"
xQ"
xP"
xO"
xK"
xJ"
xI"
bx m"
bx n"
b11111111xxxxxxxx %"
b11111111xxxxxxxx &"
b0x0 x
b0x0 y
b0xxxxxx1x 0"
b0xxxxxx1x 1"
b0xxxxxxxx )"
b0xxxxxxxx *"
bx 4#
x)#
bx 8#
x-#
bx X"
xq"
bx `"
xy"
bx /"
bx g"
bx }
bx 0#
b0xxxxxxx |
b0xxxxxxx 1#
b0xxxxxxx ;"
b0xxxxxxx Z"
b0xxxxxxx :"
b0xxxxxxx ["
bx0 5"
bx0 9"
bx0 \"
b0xxxxxxxx0 8"
b0xxxxxxxx0 ]"
b0xxxxxxx 7"
b0xxxxxxx b"
b0xxxxxxx 6"
b0xxxxxxx c"
bx0 d"
b0xxxxxxxx0 4"
b0xxxxxxxx0 e"
bx -"
bx j"
x%#
x&#
xs"
xt"
xu"
x{"
x|"
x}"
xl"
x"#
bx ."
bx h"
b0xxxxxxxx R
b0xxxxxxxx w
b0xxxxxxxx 6
b0xxxxxxxx z#
b10 A#
b10 B#
b1001 U
b1001 f#
b1001 Q
b1001 a#
bx 7
bx t#
1:
b110 K
b110 f"
b110 N#
b1 A
b1 T#
b110 @
b110 U#
1;
b1001 H
b1001 Y#
b1101 ?
b1101 [#
b1101 b#
b1001 B
b1001 Z#
b11000110 #$
b11 5
b11 d#
b11 n#
b1111 -
b1111 v
b11000110 f
b11000110 L#
b11000110 Q#
b11000110 W#
b11000110 !$
1+$
0$
0]
1.
1(
#240
0.
0(
#245
b110011 -
b110011 v
1.
1(
#250
0.
0(
#255
1]
b110100 -
b110100 v
b11 !
b11 '
b11 N
b11 W
b11 $$
1.
1(
#260
0.
0(
#265
b0 &
b0 M
b0 &$
b0 -$
bx 7
bx t#
b100 5
b100 d#
b100 n#
b110101 -
b110101 v
0+$
1$
0]
1.
1(
#270
0.
0(
#275
b0 z
b0 {
bx 2"
bx 3"
b0 x
b0 y
b0xxxxxxxx 0"
b0xxxxxxxx 1"
b0 A#
b0 B#
b0 S
b0 ~
b0 c
b0 _#
b10001 -
b10001 v
b0 b
1+$
0$
1.
1(
#280
0.
0(
#285
b0 T
b0 ]#
b100 P
b100 ;#
b100 \#
b0 O
b0 C#
1J#
1K#
1e#
b0 F#
b0 G#
1p
b10010 -
b10010 v
1.
1(
#290
0.
0(
#295
0F"
0#"
0$"
0G"
1M"
0?"
0="
0>"
0<"
0S"
0"#
b0 3#
b0 7#
0(#
0,#
b0 W"
0p"
b0 _"
0x"
1##
0C"
0O"
0I"
b0 2#
0'#
b0 5#
b0 9#
0*#
0.#
b0 6#
0+#
b0 V"
0o"
b0 Y"
0r"
b0 ^"
0w"
b0 a"
0z"
b11111111 '"
b11111111 ("
b0 2"
b0 3"
b0 +"
b0 ,"
0!#
0B"
0Q"
0P"
0K"
0J"
b0 m"
b0 n"
b1111111111111111 %"
b1111111111111111 &"
b0 0"
b0 1"
b0 )"
b0 *"
b0 4#
0)#
b0 8#
0-#
b0 X"
0q"
b0 `"
0y"
b0 /"
b0 g"
b0 }
b0 0#
b0 |
b0 1#
b0 ;"
b0 Z"
b0 :"
b0 ["
b0 5"
b0 9"
b0 \"
b0 8"
b0 ]"
b0 7"
b0 b"
b0 6"
b0 c"
b0 d"
b0 4"
b0 e"
b0 -"
b0 j"
0%#
0&#
0s"
0t"
0u"
0{"
0|"
0}"
0l"
b0 ."
b0 h"
b0 R
b0 w
1T"
bx 7
bx t#
b0 6
b0 z#
0e#
b100 9
b100 :#
b100 h#
b100 ~#
1}#
b0 j#
b1001 -
b1001 v
0p
1.
1(
#300
0.
0(
#305
1E#
b100 !
b100 '
b100 N
b100 W
b100 $$
b1010 -
b1010 v
1.
1(
#310
0.
0(
#315
b10010111 &
b10010111 M
b10010111 &$
b10010111 -$
1]
b1011 -
b1011 v
0+$
1$
1.
1(
#320
0.
0(
#325
1$"
1#"
b11111101 '"
b11111101 ("
b10 z
b10 {
1!#
b10 m"
b11110001 3#
b11110001 7#
b10011 W"
1p"
b10011 _"
1x"
b1111111111111101 %"
b1111111111111101 &"
b10 x
b10 y
b11111110 /"
b11111110 g"
b10 A#
b10 B#
b1 }
b1 0#
b1 |
b1 1#
b1 ;"
b1 Z"
b1 :"
b1 ["
b100 5"
b100 9"
b100 \"
b100 8"
b100 ]"
b1 7"
b1 b"
b1 6"
b1 c"
b100 d"
b100 4"
b100 e"
b111011110 -"
b111011110 j"
b11110001 2#
b1011111011110001 5#
b1011111011110001 9#
b11110001 6#
b10011 V"
1o"
b100000100010011 Y"
1r"
b10011 ^"
1w"
b100000100010011 a"
1z"
b11101111 2"
b11101111 3"
b11101101 +"
b11101101 ,"
b1111111111111110 ."
b1111111111111110 h"
b10 R
b10 w
b1011111011101111 0"
b1011111011101111 1"
b1011111011101101 )"
b1011111011101101 *"
b1011111011110001 4#
b1011111011110001 8#
b100000100010011 X"
1q"
b100000100010011 `"
1y"
b10 6
b10 z#
b1100 U
b1100 f#
b1011111011101111 S
b1011111011101111 ~
b1000 Q
b1000 a#
bx 7
bx t#
b11111110 c
b11111110 _#
1:
b111 K
b111 f"
b111 N#
b11 A
b11 T#
b101 @
b101 U#
b111 S#
1;
b1100 H
b1100 Y#
b1111 ?
b1111 [#
b1111 b#
b1000 B
b1000 Z#
b10010111 #$
b101 5
b101 d#
b101 n#
b1111 -
b1111 v
b10010111 f
b10010111 L#
b10010111 Q#
b10010111 W#
b10010111 !$
1+$
0$
0]
1.
1(
#330
0.
0(
#335
b10 T
b10 ]#
b0 P
b0 ;#
b0 \#
b10 O
b10 C#
0J#
0K#
b11111110 c
b11111110 _#
b10 F#
b10 G#
b0 Z
b1 `
b110011 -
b110011 v
1.
1(
#340
0.
0(
#345
1]
b110100 -
b110100 v
b101 !
b101 '
b101 N
b101 W
b101 $$
1.
1(
#350
0.
0(
#355
b0 &
b0 M
b0 &$
b0 -$
bx 7
bx t#
b11111110 c
b11111110 _#
b110 5
b110 d#
b110 n#
b110101 -
b110101 v
0+$
1$
0]
1.
1(
#360
0.
0(
#365
b0 c
b0 _#
b10001 -
b10001 v
b0 [
1+$
0$
1.
1(
#370
0.
0(
#375
1e#
1p
b10010 -
b10010 v
1.
1(
#380
0.
0(
#385
0T"
0e#
b0 9
b0 :#
b0 h#
b0 ~#
0}#
b111110 -
b111110 v
0p
1.
1(
#390
0.
0(
#395
b10 '$
0E#
0,$
1#
b111111 -
b111111 v
b10 "
b10 %
b10 L
b10 X
b10 %$
b0 !
b0 '
b0 N
b0 W
b0 $$
1.
1(
#400
0.
0(
#405
b1001 -
b1001 v
1,$
0#
1.
1(
#410
0.
0(
#415
b110 !
b110 '
b110 N
b110 W
b110 $$
b1010 -
b1010 v
1.
1(
#420
0.
0(
#425
b11010111 &
b11010111 M
b11010111 &$
b11010111 -$
1]
b1011 -
b1011 v
0+$
1$
1.
1(
#430
0.
0(
