sim/dump.vcd
$date
	Mon Jan  6 06:54:14 2014
$end
$version
	Icarus Verilog
$end
$timescale
	1ns
$end
$scope module tb $end
$var wire 16 ! addr_o [15:0] $end
$var wire 8 " data_o_o [7:0] $end
$var wire 1 # we $end
$var wire 1 $ oe $end
$var wire 8 % data_o [7:0] $end
$var wire 8 & data_i [7:0] $end
$var wire 16 ' addr [15:0] $end
$var reg 1 ( clk $end
$var reg 1 ) reset $end
$scope module cpu $end
$var wire 1 ( cpu_clk $end
$var wire 1 * cpu_firq_n $end
$var wire 1 + cpu_irq_n $end
$var wire 1 , cpu_nmi_n $end
$var wire 1 ) cpu_reset $end
$var wire 6 - cpu_state_o [5:0] $end
$var wire 1 . k_firq_req $end
$var wire 1 / k_irq_req $end
$var wire 1 0 k_nmi_req $end
$var wire 1 1 k_reset $end
$var wire 16 2 regs_o_su [15:0] $end
$var wire 16 3 regs_o_right_path_data [15:0] $end
$var wire 16 4 regs_o_pc [15:0] $end
$var wire 16 5 regs_o_left_path_data [15:0] $end
$var wire 16 6 regs_o_eamem_addr [15:0] $end
$var wire 8 7 regs_o_dp [7:0] $end
$var wire 8 8 regs_o_CCR [7:0] $end
$var wire 1 9 dec_o_write_flags $end
$var wire 1 : dec_o_wdest $end
$var wire 1 ; dec_o_use_s $end
$var wire 1 < dec_o_source_size $end
$var wire 2 = dec_o_right_path_mod [1:0] $end
$var wire 4 > dec_o_right_path_addr [3:0] $end
$var wire 3 ? dec_o_p1_optype [2:0] $end
$var wire 3 @ dec_o_p1_mode [2:0] $end
$var wire 4 A dec_o_left_path_addr [3:0] $end
$var wire 1 B dec_o_ea_wpost $end
$var wire 1 C dec_o_ea_ofs8 $end
$var wire 1 D dec_o_ea_ofs16 $end
$var wire 1 E dec_o_ea_ofs0 $end
$var wire 1 F dec_o_ea_indirect $end
$var wire 4 G dec_o_dest_reg_addr [3:0] $end
$var wire 1 H dec_o_cond_taken $end
$var wire 1 I dec_o_alu_size $end
$var wire 5 J dec_o_alu_opcode [4:0] $end
$var wire 1 # cpu_we_o $end
$var wire 1 $ cpu_oe_o $end
$var wire 8 K cpu_data_o [7:0] $end
$var wire 8 L cpu_data_i [7:0] $end
$var wire 16 M cpu_addr_o [15:0] $end
$var wire 16 N alu_o_result [15:0] $end
$var wire 8 O alu_o_CCR [7:0] $end
$var reg 4 P datamux_o_alu_in_left_path_addr [3:0] $end
$var reg 16 Q datamux_o_alu_in_left_path_data [15:0] $end
$var reg 16 R datamux_o_alu_in_right_path_data [15:0] $end
$var reg 16 S datamux_o_dest [15:0] $end
$var reg 4 T datamux_o_dest_reg_addr [3:0] $end
$var reg 1 U k_clear_e $end
$var reg 16 V k_cpu_addr [15:0] $end
$var reg 8 W k_cpu_data_o [7:0] $end
$var reg 1 $ k_cpu_oe $end
$var reg 1 # k_cpu_we $end
$var reg 1 X k_dec_su $end
$var reg 8 Y k_eahi [7:0] $end
$var reg 8 Z k_ealo [7:0] $end
$var reg 1 [ k_forced_mem_size $end
$var reg 1 \ k_inc_pc $end
$var reg 1 ] k_inc_su $end
$var reg 8 ^ k_ind_ea [7:0] $end
$var reg 2 _ k_mem_dest [1:0] $end
$var reg 8 ` k_memhi [7:0] $end
$var reg 8 a k_memlo [7:0] $end
$var reg 1 b k_mul_cnt $end
$var reg 16 c k_new_pc [15:0] $end
$var reg 8 d k_ofshi [7:0] $end
$var reg 8 e k_ofslo [7:0] $end
$var reg 8 f k_opcode [7:0] $end
$var reg 1 g k_p2_valid $end
$var reg 1 h k_p3_valid $end
$var reg 8 i k_postbyte [7:0] $end
$var reg 4 j k_pp_active_reg [3:0] $end
$var reg 8 k k_pp_regs [7:0] $end
$var reg 3 l k_reg_firq [2:0] $end
$var reg 3 m k_reg_irq [2:0] $end
$var reg 3 n k_reg_nmi [2:0] $end
$var reg 1 o k_set_e $end
$var reg 1 p k_write_dest $end
$var reg 1 q k_write_exg $end
$var reg 1 r k_write_pc $end
$var reg 1 s k_write_post_incdec $end
$var reg 1 t k_write_tfr $end
$var reg 6 u next_mem_state [5:0] $end
$var reg 6 v next_push_state [5:0] $end
$var reg 6 w next_state [5:0] $end
$var reg 6 x state [5:0] $end
$scope module alu $end
$var wire 16 y a_in [15:0] $end
$var wire 16 z b_in [15:0] $end
$var wire 1 ( clk_in $end
$var wire 1 I sz_in $end
$var wire 8 { q8_out [7:0] $end
$var wire 16 | q16_out [15:0] $end
$var wire 5 } opcode_in [4:0] $end
$var wire 8 ~ ccr8_out [7:0] $end
$var wire 4 !" ccr16_out [3:0] $end
$var wire 8 "" CCR [7:0] $end
$var reg 8 #" CCRo [7:0] $end
$var reg 16 $" q_out [15:0] $end
$var reg 16 %" ra_in [15:0] $end
$var reg 16 &" rb_in [15:0] $end
$var reg 5 '" rop_in [4:0] $end
$scope module alu16 $end
$var wire 16 (" a_in [15:0] $end
$var wire 16 )" b_in [15:0] $end
$var wire 1 ( clk_in $end
$var wire 5 *" opcode_in [4:0] $end
$var wire 1 +" z_in $end
$var wire 1 ," v_in $end
$var wire 16 -" q16_mul [15:0] $end
$var wire 1 ." n_in $end
$var wire 1 /" c_in $end
$var wire 1 0" arith_v $end
$var wire 16 1" arith_q [15:0] $end
$var wire 1 2" arith_c $end
$var wire 8 3" CCR [7:0] $end
$var reg 4 4" CCRo [3:0] $end
$var reg 1 5" c16 $end
$var reg 1 6" n16 $end
$var reg 16 7" q16 [15:0] $end
$var reg 16 8" q_out [15:0] $end
$var reg 1 9" reg_n_in $end
$var reg 1 :" reg_z_in $end
$var reg 16 ;" regq16 [15:0] $end
$var reg 1 <" v16 $end
$var reg 1 =" z16 $end
$scope module a16 $end
$var wire 16 >" a_in [15:0] $end
$var wire 16 ?" b_in [15:0] $end
$var wire 1 /" carry_in $end
$var wire 2 @" opcode_in [1:0] $end
$var reg 1 2" carry_out $end
$var reg 1 0" overflow_out $end
$var reg 16 A" q_out [15:0] $end
$upscope $end
$scope module mulu $end
$var wire 8 B" a [7:0] $end
$var wire 8 C" b [7:0] $end
$var wire 1 ( clk_in $end
$var wire 16 D" q [15:0] $end
$var reg 16 E" pipe0 [15:0] $end
$var reg 16 F" pipe1 [15:0] $end
$upscope $end
$upscope $end
$scope module alu8 $end
$var wire 8 G" a_in [7:0] $end
$var wire 8 H" b_in [7:0] $end
$var wire 1 ( clk_in $end
$var wire 1 I" cneg8_r $end
$var wire 8 J" com8_r [7:0] $end
$var wire 8 K" com8_w [7:0] $end
$var wire 8 L" neg8_r [7:0] $end
$var wire 5 M" opcode_in [4:0] $end
$var wire 1 N" vcom8_r $end
$var wire 1 O" vneg8_r $end
$var wire 1 P" z_in $end
$var wire 1 Q" v_in $end
$var wire 1 R" shift_v $end
$var wire 8 S" shift_q [7:0] $end
$var wire 1 T" shift_c $end
$var wire 8 U" neg8_w [7:0] $end
$var wire 1 V" n_in $end
$var wire 8 W" logic_q [7:0] $end
$var wire 1 X" h_in $end
$var wire 1 Y" daa_lnm9 $end
$var wire 4 Z" daa8l_r [3:0] $end
$var wire 4 [" daa8h_r [3:0] $end
$var wire 1 \" cdaa8_r $end
$var wire 1 ]" ccom8_r $end
$var wire 1 ^" c_in $end
$var wire 1 _" arith_v $end
$var wire 8 `" arith_q [7:0] $end
$var wire 1 a" arith_h $end
$var wire 1 b" arith_c $end
$var wire 8 c" CCR [7:0] $end
$var reg 8 d" CCRo [7:0] $end
$var reg 1 e" c8 $end
$var reg 1 f" h8 $end
$var reg 8 g" q8 [7:0] $end
$var reg 8 h" q_out [7:0] $end
$var reg 8 i" regq8 [7:0] $end
$var reg 1 j" v8 $end
$scope module a8 $end
$var wire 8 k" a_in [7:0] $end
$var wire 8 l" b_in [7:0] $end
$var wire 1 ^" carry_in $end
$var wire 1 X" half_c_in $end
$var wire 2 m" opcode_in [1:0] $end
$var reg 1 b" carry_out $end
$var reg 1 a" half_c_out $end
$var reg 1 _" overflow_out $end
$var reg 8 n" q_out [7:0] $end
$upscope $end
$scope module l8 $end
$var wire 8 o" a_in [7:0] $end
$var wire 8 p" b_in [7:0] $end
$var wire 2 q" opcode_in [1:0] $end
$var reg 8 r" q_out [7:0] $end
$upscope $end
$scope module s8 $end
$var wire 8 s" a_in [7:0] $end
$var wire 8 t" b_in [7:0] $end
$var wire 1 ^" carry_in $end
$var wire 3 u" opcode_in [2:0] $end
$var wire 1 Q" overflow_in $end
$var wire 1 T" carry_out $end
$var reg 1 R" overflow_out $end
$var reg 8 v" q_out [7:0] $end
$upscope $end
$upscope $end
$upscope $end
$scope module dec_alu $end
$var wire 8 w" opcode [7:0] $end
$var wire 1 g page2_valid $end
$var wire 1 h page3_valid $end
$var wire 8 x" postbyte0 [7:0] $end
$var wire 1 9 dest_flags $end
$var reg 5 y" alu_opcode [4:0] $end
$var reg 2 z" dec_alu_right_path_mod [1:0] $end
$upscope $end
$scope module dec_ea $end
$var wire 8 {" eapostbyte [7:0] $end
$var wire 1 F isind $end
$var reg 1 E noofs $end
$var reg 1 D ofs16 $end
$var reg 1 C ofs8 $end
$var reg 1 B write_post $end
$upscope $end
$scope module dec_op $end
$var wire 8 |" opcode [7:0] $end
$var wire 1 g page2_valid $end
$var wire 1 h page3_valid $end
$var wire 8 }" postbyte0 [7:0] $end
$var wire 4 ~" oplo [3:0] $end
$var reg 3 !# mode [2:0] $end
$var reg 3 "# optype [2:0] $end
$var reg 1 ## size $end
$var reg 1 ; use_s $end
$upscope $end
$scope module dec_regs $end
$var wire 1 ( cpu_clk $end
$var wire 8 $# opcode [7:0] $end
$var wire 1 g page2_valid $end
$var wire 1 h page3_valid $end
$var wire 8 %# postbyte0 [7:0] $end
$var wire 1 : write_dest $end
$var wire 1 < source_size $end
$var wire 1 I result_size $end
$var reg 4 &# dest_reg [3:0] $end
$var reg 4 '# dest_reg_o [3:0] $end
$var reg 4 (# path_left_addr [3:0] $end
$var reg 4 )# path_left_addr_o [3:0] $end
$var reg 4 *# path_right_addr [3:0] $end
$var reg 4 +# path_right_addr_o [3:0] $end
$upscope $end
$scope module regs $end
$var wire 8 ,# CCR_in [7:0] $end
$var wire 1 U clear_e $end
$var wire 1 ( clk_in $end
$var wire 16 -# data_w [15:0] $end
$var wire 1 X dec_su $end
$var wire 16 .# eamem_addr_o [15:0] $end
$var wire 8 /# eapostbyte [7:0] $end
$var wire 4 0# exg_dest_r [3:0] $end
$var wire 1 \ inc_pc $end
$var wire 1 ] inc_su $end
$var wire 16 1# new_pc [15:0] $end
$var wire 16 2# offset16 [15:0] $end
$var wire 4 3# path_left_addr [3:0] $end
$var wire 4 4# path_right_addr [3:0] $end
$var wire 8 5# reg_dp [7:0] $end
$var wire 16 6# reg_pc [15:0] $end
$var wire 1 o set_e $end
$var wire 1 ; use_s $end
$var wire 1 q write_exg $end
$var wire 1 7# write_flags $end
$var wire 1 r write_pc $end
$var wire 1 s write_post $end
$var wire 1 p write_reg $end
$var wire 4 8# write_reg_addr [3:0] $end
$var wire 1 t write_tfr $end
$var wire 4 9# right_reg [3:0] $end
$var wire 16 :# right [15:0] $end
$var wire 16 ;# reg_su [15:0] $end
$var wire 16 <# pc_plus_1 [15:0] $end
$var wire 16 =# left [15:0] $end
$var wire 16 ># eamem_addr [15:0] $end
$var wire 16 ?# ea_reg_post [15:0] $end
$var wire 8 @# CCR_o [7:0] $end
$var reg 8 A# ACCA [7:0] $end
$var reg 8 B# ACCB [7:0] $end
$var reg 8 C# DP [7:0] $end
$var reg 16 D# IX [15:0] $end
$var reg 16 E# IY [15:0] $end
$var reg 16 F# PC [15:0] $end
$var reg 16 G# SS [15:0] $end
$var reg 16 H# SU [15:0] $end
$var reg 1 I# cff $end
$var reg 1 J# eflag $end
$var reg 1 K# fflag $end
$var reg 1 L# hflag $end
$var reg 1 M# intff $end
$var reg 1 N# nff $end
$var reg 16 O# path_left_data [15:0] $end
$var reg 16 P# path_right_data [15:0] $end
$var reg 1 Q# vff $end
$var reg 1 R# zff $end
$scope module ea $end
$var wire 8 S# acca [7:0] $end
$var wire 8 T# accb [7:0] $end
$var wire 16 U# ea_reg_post_o [15:0] $end
$var wire 16 V# eamem_addr_o [15:0] $end
$var wire 8 W# eapostbyte [7:0] $end
$var wire 16 X# ix [15:0] $end
$var wire 16 Y# iy [15:0] $end
$var wire 16 Z# offset16 [15:0] $end
$var wire 16 [# pc [15:0] $end
$var wire 16 \# s [15:0] $end
$var wire 16 ]# u [15:0] $end
$var reg 16 ^# ea_reg [15:0] $end
$var reg 16 _# ea_reg_post [15:0] $end
$var reg 16 `# eamem_addr [15:0] $end
$upscope $end
$upscope $end
$scope module test_cond $end
$var wire 8 a# CCR [7:0] $end
$var wire 8 b# opcode [7:0] $end
$var wire 1 g page2_valid $end
$var wire 8 c# postbyte0 [7:0] $end
$var wire 8 d# op [7:0] $end
$var reg 1 H cond_taken $end
$upscope $end
$upscope $end
$scope module imem $end
$var wire 16 e# addr [15:0] $end
$var wire 8 f# data_i [7:0] $end
$var wire 8 g# data_o [7:0] $end
$var wire 8 h# mem0 [7:0] $end
$var wire 8 i# mem1 [7:0] $end
$var wire 8 j# mem2 [7:0] $end
$var wire 8 k# mem3 [7:0] $end
$var wire 1 l# oe $end
$var wire 1 m# we $end
$var reg 8 n# latecheddata [7:0] $end
$upscope $end
$upscope $end
$enddefinitions $end
#0
$dumpvars
bx n#
1m#
1l#
b111101 k#
b10111011 j#
b10101010 i#
b11001100 h#
bx g#
bx f#
bx e#
bx d#
bx c#
bx b#
b0 a#
bx `#
bx _#
bx ^#
b111000000000 ]#
b111100000000 \#
b1111111111111110 [#
bx Z#
b1010010101011010 Y#
b0 X#
bx W#
bx V#
bx U#
bx T#
bx S#
0R#
0Q#
b1111111111111111 P#
b1111111111111111 O#
0N#
0M#
0L#
0K#
0J#
0I#
b111000000000 H#
b111100000000 G#
b1111111111111110 F#
b1010010101011010 E#
b0 D#
b0 C#
bx B#
bx A#
b0 @#
bx ?#
bx >#
b0 =#
b1111111111111111 <#
b111x00000000 ;#
b1111111111111111 :#
bx 9#
bx 8#
07#
b1111111111111110 6#
b0 5#
bx 4#
bx 3#
bx 2#
bx 1#
bx 0#
bx /#
bx .#
b0 -#
b100 ,#
bx +#
bx *#
bx )#
bx (#
bx '#
bx &#
bx %#
bx $#
x##
bx "#
bx !#
bx ~"
bx }"
bx |"
bx {"
bx z"
bx y"
bx x"
bx w"
bx v"
bx u"
bx t"
bx s"
bx r"
bx q"
bx p"
bx o"
bx n"
bx m"
bx l"
bx k"
0j"
bx i"
b0 h"
b0 g"
0f"
0e"
b100 d"
b0 c"
xb"
xa"
bx `"
x_"
0^"
x]"
x\"
bx ["
bx Z"
xY"
0X"
bx W"
0V"
bx U"
xT"
bx S"
0R"
0Q"
0P"
xO"
0N"
bx M"
bx L"
bx K"
bx J"
xI"
bx H"
bx G"
bx F"
bx E"
bx D"
bx C"
bx B"
bx A"
bx @"
bx ?"
bx >"
1="
0<"
bx ;"
x:"
x9"
b0 8"
b0 7"
06"
05"
b100 4"
b0 3"
x2"
bx 1"
x0"
0/"
0."
bx -"
0,"
0+"
bx *"
bx )"
bx ("
bx '"
bx &"
bx %"
b0 $"
b100 #"
b0 ""
b100 !"
b100 ~
bx }
b0 |
b0 {
bx z
b1111111111111111 y
b0 x
bx w
bx v
bx u
0t
xs
xr
0q
xp
xo
b0 n
b0 m
b0 l
bx k
bx j
bx i
xh
xg
bx f
bx e
bx d
bx c
0b
bx a
bx `
b0 _
bx ^
x]
x\
x[
bx Z
bx Y
xX
bx W
bx V
xU
bx T
b0 S
bx R
b1111111111111111 Q
bx P
b100 O
b0 N
bx M
bx L
bx K
bx J
xI
0H
bx G
xF
xE
xD
xC
xB
bx A
bx @
bx ?
bx >
bx =
x<
x;
x:
x9
b0 8
b0 7
bx 6
b1111111111111111 5
b1111111111111110 4
b1111111111111111 3
b111x00000000 2
11
00
0/
0.
b0 -
z,
z+
z*
1)
0(
bx '
bx &
bx %
0$
0#
bx "
bx !
$end
#5
1\"
0O"
0]"
1I"
b101 Z"
b101 ["
1T"
b0 J"
b0 K"
1Y"
b11111111 S"
b11111111 v"
b1 L"
b1 U"
b11111111 G"
b11111111 k"
b11111111 o"
b11111111 s"
b11111111 B"
b0 i"
0:"
09"
b0 ;"
b1111111111111111 %"
b1111111111111111 ("
b1111111111111111 >"
1(
#10
0(
#15
1(
#20
0(
#25
1(
#30
0(
#35
1(
#40
0(
#45
1(
#46
01
0)
#50
0(
#55
b1000 u
b11111110 Z
b11111111 Y
b110110 -
b110110 x
1[
b0z l
b0z m
b0z n
1(
#60
0(
#65
0[
b110111 -
b110111 x
b1111111111111110 !
b1111111111111110 '
b1111111111111110 M
b1111111111111110 V
b1111111111111110 e#
b0zz l
b0zz m
b0zz n
1(
#70
0(
#75
b0 &
b0 L
b0 g#
b0 n#
x.
x/
x0
b111000 -
b111000 x
0l#
1$
bz l
bz m
bz n
1(
#80
0(
#85
b0xxxxxxxx c
b0xxxxxxxx 1#
b1111111111111111 !
b1111111111111111 '
b1111111111111111 M
b1111111111111111 V
b1111111111111111 e#
b111010 -
b111010 x
b0 `
1l#
0$
1(
#90
0(
#95
b111011 -
b111011 x
0l#
1$
1(
#100
0(
#105
b101 9#
b0 c
b0 1#
b1000 -
b1000 x
1r
b0 a
1l#
0$
1(
#110
0(
#115
bx 9#
bx1 :#
bx 6
bx .#
bx >#
bx V#
bx `#
b1 <#
b0 4
b0 6#
b0 F#
b0 [#
b1001 -
b1001 x
0r
1(
#120
0(
#125
b0 !
b0 '
b0 M
b0 V
b0 e#
b1010 -
b1010 x
1(
#130
0(
#135
b11001100 &
b11001100 L
b11001100 g#
b11001100 n#
b1111111111111111 R
b1111111111111111 z
b11111110 c
b11111110 1#
b111100000000 2
b111100000000 ;#
b101 9#
b0 =
b0 z"
19
b1001 J
b1001 }
b1001 y"
0##
b11 @
b11 !#
1;
b110 ?
b110 "#
x:
bx &#
b1101 *#
x<
bx (#
b1 :#
b1011 -
b1011 x
b1111 j
0h
0g
1\
0l#
1$
1(
#140
0(
#145
b0 =#
b0 S
b0 -#
1I
00"
02"
b0 1"
b0 A"
b100 O
b100 #"
b100 ,#
b0 N
b0 $"
b11111110 S"
b11111110 v"
0a"
0_"
0b"
b0 `"
b0 n"
b11111111 W"
b11111111 r"
b100 !"
b100 4"
b0 |
b0 8"
bx 9#
1="
06"
b1 @"
b100 ~
b100 d"
b0 {
b0 h"
0f"
0j"
0e"
b0 g"
b1 q"
b1 m"
b1 u"
b11111111 H"
b11111111 l"
b11111111 p"
b11111111 t"
b11111111 C"
0<"
05"
b0 7"
bx 6
bx .#
bx >#
bx V#
bx `#
b0 c
b0 1#
b0 R
b0 z
19
b100 J
b100 }
b100 y"
1##
b1 @
b1 !#
b110 ?
b110 "#
b1100 ~"
1:
b0 &#
b111 *#
1<
b0 (#
b11001100 d#
b1111111111111111 :#
b1001 '"
b1001 *"
b1001 M"
b1111111111111111 &"
b1111111111111111 )"
b1111111111111111 ?"
b10 <#
b1 4
b1 6#
b1 F#
b1 [#
b1101 >
b1101 +#
b1101 4#
b1111 -
b1111 x
b11001100 f
b11001100 w"
b11001100 |"
b11001100 $#
b11001100 b#
1l#
0$
0\
1(
#150
0(
#155
bx Q
bx y
bx 5
bx O#
b11111111 S"
b11111111 v"
b11111111 `"
b11111111 n"
b0 W"
b0 r"
b0 T
b0 8#
b0 P
b0 3#
b0 @"
b100 ~
b100 d"
b0 {
b0 h"
b0 g"
b0 q"
b0 m"
b100 u"
b0 H"
b0 l"
b0 p"
b0 t"
b0 C"
b1111111111111111 1"
b1111111111111111 A"
b0 G
b0 '#
b0 A
b0 )#
b111 >
b111 +#
b111 4#
b100 '"
b100 *"
b100 M"
b0 &"
b0 )"
b0 ?"
b111011110001 E"
b10001 w
b110000 -
b110000 x
1(
#160
0(
#165
xO"
x]"
xI"
bx Z"
bx ["
xT"
bx J"
bx K"
xY"
x\"
xa"
x_"
xb"
bx `"
bx n"
bx S"
bx v"
b101 9#
bx L"
bx U"
bx G"
bx k"
bx o"
bx s"
bx B"
x0"
x2"
bx 1"
bx A"
b10 :#
b111011110001 -"
b111011110001 D"
b111011110001 F"
b0 E"
bx %"
bx ("
bx >"
1\
b110001 -
b110001 x
b1 !
b1 '
b1 M
b1 V
b1 e#
1(
#170
0(
#175
b10101010 &
b10101010 L
b10101010 g#
b10101010 n#
bx 9#
bx 6
bx .#
bx >#
bx V#
bx `#
b1111111111111111 :#
b11 <#
b10 4
b10 6#
b10 F#
b10 [#
b0 -"
b0 D"
b0 F"
b110010 -
b110010 x
0l#
1$
0\
1(
#180
0(
#185
b1010101000000000 R
b1010101000000000 z
b1010101000000000 c
b1010101000000000 1#
b110011 -
b110011 x
b10101010 `
1l#
0$
1(
#190
0(
#195
b1010101000000000 =#
b1010101000000000 S
b1010101000000000 -#
b1000 O
b1000 #"
b1000 ,#
b1010101000000000 N
b1010101000000000 $"
b1000 !"
b1000 4"
b1010101000000000 |
b1010101000000000 8"
0="
16"
b101 9#
b1010101000000000 7"
b11 :#
b1010101000000000 &"
b1010101000000000 )"
b1010101000000000 ?"
1\
b110100 -
b110100 x
b10 !
b10 '
b10 M
b10 V
b10 e#
1(
#200
0(
#205
b10111011 &
b10111011 L
b10111011 g#
b10111011 n#
bx 9#
bx 6
bx .#
bx >#
bx V#
bx `#
b1111111111111111 :#
b1010101000000000 ;"
b100 <#
b11 4
b11 6#
b11 F#
b11 [#
b110101 -
b110101 x
0l#
1$
0\
1(
#210
0(
#215
b1010101010111011 R
b1010101010111011 z
b1010101010111011 c
b1010101010111011 1#
b10001 -
b10001 x
b10111011 a
1l#
0$
1(
#220
0(
#225
b1010101010111011 =#
b1000 ~
b1000 d"
b10111011 {
b10111011 h"
b1010101010111011 S
b1010101010111011 -#
b10111011 g"
b1010101010111011 N
b1010101010111011 $"
b10111011 W"
b10111011 r"
b1010101010111011 |
b1010101010111011 8"
b10111011 H"
b10111011 l"
b10111011 p"
b10111011 t"
b10111011 C"
b1010101010111011 7"
17#
b1010101010111011 &"
b1010101010111011 )"
b1010101010111011 ?"
1p
b10010 -
b10010 x
1(
#230
0(
#235
b1010101010111011 Q
b1010101010111011 y
1V"
1."
bx 6
bx .#
bx >#
bx V#
bx `#
b1010101010111011 5
b1010101010111011 O#
b1010101010111011 7"
07#
b1000 8
b1000 ""
b1000 3"
b1000 c"
b1000 @#
b1000 a#
1N#
b10101010 A#
b10101010 S#
b10111011 B#
b10111011 T#
b1010101010111011 ;"
bx -"
bx D"
bx F"
bx E"
b10111011 i"
b1001 -
b1001 x
b1001 u
0p
1(
#240
0(
#245
1\"
0O"
1]"
1I"
b1 Z"
b1 ["
1T"
b1000100 J"
b1000100 K"
1Y"
1a"
1_"
1b"
b1110110 `"
b1110110 n"
b11011101 S"
b11011101 v"
b10111011 g"
b1000101 L"
b1000101 U"
b10111011 G"
b10111011 k"
b10111011 o"
b10111011 s"
b10111011 B"
10"
12"
b101010101110110 1"
b101010101110110 A"
b1010101010111011 7"
19"
b1010101010111011 %"
b1010101010111011 ("
b1010101010111011 >"
b11 !
b11 '
b11 M
b11 V
b11 e#
b1010 -
b1010 x
1(
#250
0(
#255
b111101 &
b111101 L
b111101 g#
b111101 n#
b101 9#
b100 :#
b100000001001 E"
b1011 -
b1011 x
1\
0l#
1$
1(
#260
0(
#265
bx 9#
b1010101010111011 7"
bx 6
bx .#
bx >#
bx V#
bx `#
19
b11011 J
b11011 }
b11011 y"
0##
b10 @
b10 !#
b0 ?
b0 "#
b1101 ~"
1:
b0 &#
b1001 *#
0<
b1000 (#
b111101 d#
b1111111111111111 :#
b1000100010011001 -"
b1000100010011001 D"
b1000100010011001 F"
b101 <#
b100 4
b100 6#
b100 F#
b100 [#
b1111 -
b1111 x
b111101 f
b111101 w"
b111101 |"
b111101 $#
b111101 b#
1l#
0$
0\
1(
#270
0(
#275
b1000100010011001 =#
b1000100010011001 S
b1000100010011001 -#
b1111111110101010 Q
b1111111110101010 y
b1001 O
b1001 #"
b1001 ,#
b1000100010011001 N
b1000100010011001 $"
b1111111110101010 5
b1111111110101010 O#
b1111111110111011 :#
b1001 !"
b1001 4"
b1000100010011001 |
b1000100010011001 8"
00"
02"
b0 1"
b0 A"
b0 W"
b0 r"
0a"
0_"
0b"
b0 `"
b0 n"
1R"
b1110110 S"
b1110110 v"
b1000 P
b1000 3#
b1111111110111011 3
b1111111110111011 P#
b1111111110111011 R
b1111111110111011 z
15"
b1000100010011001 7"
b11 @"
b100 ~
b100 d"
b0 {
b0 h"
b0 g"
b11 q"
b11 m"
b11 u"
b1000 A
b1000 )#
b1001 >
b1001 +#
b1001 4#
b11011 '"
b11011 *"
b11011 M"
b10001 -
b10001 x
1b
1(
#280
0(
#285
b0 Z"
b0 ["
0T"
b1010101 J"
b1010101 K"
1b"
b11101111 `"
b11101111 n"
b10001 W"
b10001 r"
1R"
b1010100 S"
b1010100 v"
b1010110 L"
b1010110 U"
b10101010 G"
b10101010 k"
b10101010 o"
b10101010 s"
b10101010 B"
12"
b1111111111101111 1"
b1111111111101111 A"
15"
b1000100010011001 7"
b0 i"
b1000100010011001 ;"
b1111111110111011 &"
b1111111110111011 )"
b1111111110111011 ?"
b1111111110101010 %"
b1111111110101010 ("
b1111111110101010 >"
0b
1(
#290
0(
#295
b111110011101001 =#
b111110011101001 S
b111110011101001 -#
b111110011101001 N
b111110011101001 $"
b111110011101001 |
b111110011101001 8"
16"
15"
b111110011101001 7"
17#
b111110011101001 -"
b111110011101001 D"
b111110011101001 F"
b11101001110 E"
1p
b10010 -
b10010 x
1(
#300
0(
#305
b111110000101110 =#
b111110000101110 S
b111110000101110 -#
b1000 O
b1000 #"
b1000 ,#
b111110000101110 N
b111110000101110 $"
b101 ~
b101 d"
b1000 !"
b1000 4"
b111110000101110 |
b111110000101110 8"
16"
b11101110 `"
b11101110 n"
b1010101 S"
b1010101 v"
1e"
b1111111111101110 1"
b1111111111101110 A"
b1111111101111100 Q
b1111111101111100 y
b1111111111101001 :#
b1111111111101001 R
b1111111111101001 z
05"
b111110000101110 7"
1^"
1/"
bx 6
bx .#
bx >#
bx V#
bx `#
b1111111101111100 5
b1111111101111100 O#
b1111111111101001 3
b1111111111101001 P#
07#
b111110000101110 -"
b111110000101110 D"
b111110000101110 F"
b111110011101001 ;"
b1001 8
b1001 ""
b1001 3"
b1001 c"
b1001 @#
b1001 a#
1I#
b1111100 A#
b1111100 S#
b11101001 B#
b11101001 T#
b1001 -
b1001 x
0p
1(
#310
0(
#315
b10 Z"
0\"
b1101 ["
b10000011 J"
b10000011 K"
1_"
b10010010 `"
b10010010 n"
b10010101 W"
b10010101 r"
1R"
b11111001 S"
b11111001 v"
16"
b11101001 H"
b11101001 l"
b11101001 p"
b11101001 t"
b11101001 C"
b10000100 L"
b10000100 U"
b1111100 G"
b1111100 k"
b1111100 o"
b1111100 s"
b1111100 B"
b1111111110010010 1"
b1111111110010010 A"
05"
b111110000101110 7"
b1111111111101001 &"
b1111111111101001 )"
b1111111111101001 ?"
b1111111101111100 %"
b1111111101111100 ("
b1111111101111100 >"
b111110000101110 ;"
b100 !
b100 '
b100 M
b100 V
b100 e#
b1010 -
b1010 x
1(
#320
0(
#325
b10001110 &
b10001110 L
b10001110 g#
b10001110 n#
b110110100111110 =#
b110110100111110 S
b110110100111110 -#
b110110100111110 N
b110110100111110 $"
b110110100111110 |
b110110100111110 8"
16"
b101 9#
05"
b110110100111110 7"
b101 :#
b110110100111110 -"
b110110100111110 D"
b110110100111110 F"
b101011101100 E"
b1011 -
b1011 x
1\
0l#
1$
1(
#330
0(
#335
b111000011011100 =#
b111000011011100 S
b111000011011100 -#
b1001 O
b1001 #"
b1001 ,#
b111000011011100 N
b111000011011100 $"
b1001 !"
b1001 4"
b111000011011100 |
b111000011011100 8"
16"
bx 9#
bx 6
bx .#
bx >#
bx V#
bx `#
15"
b111000011011100 7"
19
b100 J
b100 }
b100 y"
b110 ?
b110 "#
1##
b1 @
b1 !#
b1110 ~"
1<
1:
b1 &#
b111 *#
b1 (#
b10001110 d#
b1111111111101001 :#
b110 <#
b101 4
b101 6#
b101 F#
b101 [#
b110110100111110 ;"
b111000011011100 -"
b111000011011100 D"
b111000011011100 F"
b1111 -
b1111 x
b10001110 f
b10001110 w"
b10001110 |"
b10001110 $#
b10001110 b#
1l#
0$
0\
1(
#340
0(
#345
b1111111111101001 =#
b1111111111101001 S
b1111111111101001 -#
b1111111111101001 N
b1111111111101001 $"
b0 Q
b0 y
b1111111111101001 |
b1111111111101001 8"
b1111111101100101 1"
b1111111101100101 A"
b11101001 W"
b11101001 r"
1a"
0_"
b1100101 `"
b1100101 n"
0R"
b111110 S"
b111110 v"
b0 5
b0 O#
b1111111111111111 :#
b1111111111101001 7"
b0 @"
b1001 ~
b1001 d"
b11101001 {
b11101001 h"
b11101001 g"
b0 q"
b0 m"
b100 u"
b1 T
b1 8#
b1 P
b1 3#
b1111111111111111 3
b1111111111111111 P#
b1010101010111011 R
b1010101010111011 z
b111000011011100 ;"
b100 '"
b100 *"
b100 M"
b1 G
b1 '#
b1 A
b1 )#
b111 >
b111 +#
b111 4#
b110000 -
b110000 x
1(
#350
0(
